224
Lattice="62.448455391 0.0 0.0 0.0 20.602647164 0.0 0.0 0.0 40.0" Properties=species:S:1:pos:R:3:Z:I:1 i=46, E=-989.627371277 pbc="T T T"
H      5.39441041      10.30088820      22.53939622        1 
H      5.39426118      10.30088842      20.79000000        1 
H      5.09276400       7.81804721      21.66462948        1 
H      5.09189294      12.78365851      21.66462948        1 
C      8.26350380       6.60352719      21.66462948        6 
C      6.88121792       6.60238722      21.66462948        6 
C      8.99599684       7.81265809      21.66462948        6 
C      6.18428636       7.81682707      21.66462948        6 
C      8.28396785       9.04988860      21.66462948        6 
C      6.86385264       9.02721428      21.66462948        6 
C      9.00825408      10.30147021      21.66462948        6 
C      6.06656970      10.30097863      21.66462948        6 
C      8.28347676      11.55280174      21.66462948        6 
C      6.86338610      11.57499150      21.66462948        6 
C      8.99498685      12.79024493      21.66462948        6 
C      6.18341427      12.78514916      21.66462948        6 
C      8.26219765      13.99914541      21.66462948        6 
C      6.87993927      13.99982721      21.66462948        6 
H      6.33598984       5.65871631      21.66462948        1 
H      6.33442347      14.94334923      21.66462948        1 
H      8.78374632       5.64907513      21.66462948        1 
H      8.78212851      14.95376853      21.66462948        1 
C     12.56273404       6.62685003      21.66462948        6 
C     11.19199517       6.62422273      21.66462948        6 
C     13.30068861       7.83487050      21.66462948        6 
C     10.44459289       7.82642419      21.66462948        6 
C     12.58395866       9.06358944      21.66462948        6 
C     11.14759602       9.05871620      21.66462948        6 
C     13.30575865      10.30250563      21.66462948        6 
C     10.41898388      10.30177735      21.66462948        6 
C     12.58337493      11.54111702      21.66462948        6 
C     11.14705026      11.54521077      21.66462948        6 
C     13.29944853      12.77015566      21.66462948        6 
C     10.44351112      12.77709877      21.66462948        6 
C     12.56090201      13.97774744      21.66462948        6 
C     11.19021898      13.97967781      21.66462948        6 
H     10.67999528       5.66537646      21.66462948        1 
H     10.67781895      14.93830558      21.66462948        1 
H     13.07881014       5.67027727      21.66462948        1 
H     13.07652388      14.93456317      21.66462948        1 
C     16.85773163       6.63046714      21.66462948        6 
C     15.48716421       6.63050522      21.66462948        6 
C     17.60143079       7.83697364      21.66462948        6 
C     14.74260581       7.83657255      21.66462948        6 
C     16.88858550       9.06693169      21.66462948        6 
C     15.45241246       9.06649724      21.66462948        6 
C     17.61020281      10.30382598      21.66462948        6 
C     14.72774870      10.30294404      21.66462948        6 
C     16.88793218      11.54037379      21.66462948        6 
C     15.45177429      11.53988591      21.66462948        6 
C     17.60012156      12.77068457      21.66462948        6 
C     14.74130536      12.76931876      21.66462948        6 
C     16.85572517      13.97666571      21.66462948        6 
C     15.48514615      13.97577531      21.66462948        6 
H     14.97402931       5.67231288      21.66462948        1 
H     14.97143493      14.93365739      21.66462948        1 
H     17.37185658       5.67268772      21.66462948        1 
H     17.36920737      14.93479423      21.66462948        1 
C     21.15855045       6.63172092      21.66462948        6 
C     19.78811457       6.63140190      21.66462948        6 
C     21.90253974       7.83823736      21.66462948        6 
C     19.04261097       7.83736823      21.66462948        6 
C     21.19024899       9.06808081      21.66462948        6 
C     19.75404145       9.06760569      21.66462948        6 
C     21.91139082      10.30508775      21.66462948        6 
C     19.03220889      10.30428772      21.66462948        6 
C     21.18973698      11.54189683      21.66462948        6 
C     19.75346662      11.54150329      21.66462948        6 
C     21.90156126      12.77199922      21.66462948        6 
C     19.04133788      12.77121596      21.66462948        6 
C     21.15678765      13.97801806      21.66462948        6 
C     19.78629520      13.97749502      21.66462948        6 
H     19.27475868       5.67319898      21.66462948        1 
H     19.27240738      14.93543632      21.66462948        1 
H     21.67256526       5.67391718      21.66462948        1 
H     21.67012615      14.93622633      21.66462948        1 
C     25.45840130       6.63202463      21.66462948        6 
C     24.08791310       6.63218665      21.66462948        6 
C     26.20341120       7.83827299      21.66462948        6 
C     23.34364845       7.83855172      21.66462948        6 
C     25.49153600       9.06859485      21.66462948        6 
C     24.05551001       9.06864485      21.66462948        6 
C     26.21276600      10.30566465      21.66462948        6 
C     23.33392918      10.30539341      21.66462948        6 
C     25.49126456      11.54277637      21.66462948        6 
C     24.05515904      11.54249960      21.66462948        6 
C     26.20304996      12.77305886      21.66462948        6 
C     23.34282017      12.77227152      21.66462948        6 
C     25.45762227      13.97902748      21.66462948        6 
C     24.08702282      13.97865200      21.66462948        6 
H     23.57405735       5.67430716      21.66462948        1 
H     23.57310680      14.93654494      21.66462948        1 
H     25.97207396       5.67399378      21.66462948        1 
H     25.97106211      14.93722470      21.66462948        1 
C     29.76004465       6.63229448      21.66462948        6 
C     28.38956184       6.63218955      21.66462948        6 
C     30.50425610       7.83874412      21.66462948        6 
C     27.64436539       7.83834871      21.66462948        6 
C     29.79222762       9.06882132      21.66462948        6 
C     28.35614049       9.06868413      21.66462948        6 
C     30.51356361      10.30571484      21.66462948        6 
C     27.63478073      10.30567467      21.66462948        6 
C     29.79214916      11.54273611      21.66462948        6 
C     28.35602115      11.54284856      21.66462948        6 
C     30.50425516      12.77263193      21.66462948        6 
C     27.64410939      12.77306391      21.66462948        6 
C     29.75997483      13.97893460      21.66462948        6 
C     28.38943722      13.97908080      21.66462948        6 
H     27.87582772       5.67418194      21.66462948        1 
H     27.87585478      14.93719583      21.66462948        1 
H     30.27382075       5.67435665      21.66462948        1 
H     30.27375372      14.93688268      21.66462948        1 
C     34.06009152       6.63220037      21.66462948        6 
C     32.68966673       6.63228575      21.66462948        6 
C     34.80528421       7.83834496      21.66462948        6 
C     31.94538838       7.83872484      21.66462948        6 
C     34.09353986       9.06864983      21.66462948        6 
C     32.65738717       9.06879308      21.66462948        6 
C     34.81483636      10.30562527      21.66462948        6 
C     31.93613128      10.30570900      21.66462948        6 
C     34.09368690      11.54279776      21.66462948        6 
C     32.65749945      11.54273314      21.66462948        6 
C     34.80559783      12.77296116      21.66462948        6 
C     31.94544811      12.77263642      21.66462948        6 
C     34.06032390      13.97898534      21.66462948        6 
C     32.68985162      13.97889967      21.66462948        6 
H     32.17595711       5.67431409      21.66462948        1 
H     32.17618260      14.93690255      21.66462948        1 
H     34.57385347       5.67420840      21.66462948        1 
H     34.57398141      14.93705579      21.66462948        1 
C     38.36154069       6.63203442      21.66462948        6 
C     36.99103131       6.63192329      21.66462948        6 
C     39.10576618       7.83842934      21.66462948        6 
C     36.24621301       7.83824154      21.66462948        6 
C     38.39399297       9.06858206      21.66462948        6 
C     36.95809295       9.06855024      21.66462948        6 
C     39.11558557      10.30535170      21.66462948        6 
C     36.23685400      10.30560738      21.66462948        6 
C     38.39436165      11.54247044      21.66462948        6 
C     36.95838140      11.54270439      21.66462948        6 
C     39.10663673      12.77230543      21.66462948        6 
C     36.24662406      12.77297694      21.66462948        6 
C     38.36245491      13.97870323      21.66462948        6 
C     36.99183557      13.97902232      21.66462948        6 
H     36.47730559       5.67392981      21.66462948        1 
H     36.47833285      14.93717349      21.66462948        1 
H     38.87541860       5.67416475      21.66462948        1 
H     38.87638685      14.93659228      21.66462948        1 
C     42.66125147       6.63134363      21.66462948        6 
C     41.29087884       6.63162677      21.66462948        6 
C     43.40661835       7.83734750      21.66462948        6 
C     40.54679532       7.83811242      21.66462948        6 
C     42.69520009       9.06754248      21.66462948        6 
C     41.25901411       9.06798482      21.66462948        6 
C     43.41695372      10.30422337      21.66462948        6 
C     40.53799687      10.30504204      21.66462948        6 
C     42.69579467      11.54144892      21.66462948        6 
C     41.25954780      11.54189675      21.66462948        6 
C     43.40792721      12.77110614      21.66462948        6 
C     40.54781527      12.77204478      21.66462948        6 
C     42.66315984      13.97744546      21.66462948        6 
C     41.29272687      13.97802869      21.66462948        6 
H     40.77686379       5.67382171      21.66462948        1 
H     40.77942804      14.93626315      21.66462948        1 
H     43.17461958       5.67315627      21.66462948        1 
H     43.17709625      14.93535044      21.66462948        1 
C     46.96175113       6.63036537      21.66462948        6 
C     45.59119493       6.63036326      21.66462948        6 
C     47.70634424       7.83642977      21.66462948        6 
C     44.84775169       7.83695737      21.66462948        6 
C     46.99663892       9.06640270      21.66462948        6 
C     45.56056817       9.06689299      21.66462948        6 
C     47.72126858      10.30286438      21.66462948        6 
C     44.83897442      10.30376891      21.66462948        6 
C     46.99731973      11.53983535      21.66462948        6 
C     45.56125588      11.54028396      21.66462948        6 
C     47.70771681      12.76931626      21.66462948        6 
C     44.84910062      12.77056386      21.66462948        6 
C     46.96382310      13.97576941      21.66462948        6 
C     45.59325409      13.97662086      21.66462948        6 
H     45.07703346       5.67262041      21.66462948        1 
H     45.07972550      14.93470638      21.66462948        1 
H     47.47492539       5.67219681      21.66462948        1 
H     47.47756133      14.93363849      21.66462948        1 
C     51.25683195       6.62408854      21.66462948        6 
C     49.88615264       6.62670027      21.66462948        6 
C     52.00405218       7.82633743      21.66462948        6 
C     49.14815838       7.83471581      21.66462948        6 
C     51.30111687       9.05860775      21.66462948        6 
C     49.86482347       9.06345956      21.66462948        6 
C     52.02973166      10.30162384      21.66462948        6 
C     49.14310846      10.30240857      21.66462948        6 
C     51.30170593      11.54504610      21.66462948        6 
C     49.86544873      11.54102776      21.66462948        6 
C     52.00524940      12.77687120      21.66462948        6 
C     49.14948393      12.77013404      21.66462948        6 
C     51.25877907      13.97953361      21.66462948        6 
C     49.88814544      13.97768988      21.66462948        6 
H     49.37004483       5.67014765      21.66462948        1 
H     49.37255100      14.93452344      21.66462948        1 
H     51.76885159       5.66526581      21.66462948        1 
H     51.77126211      14.93810281      21.66462948        1 
C     55.56702063       6.60204949      21.66462948        6 
C     54.18477427       6.60328758      21.66462948        6 
C     56.26404257       7.81644394      21.66462948        6 
C     53.45259944       7.81253111      21.66462948        6 
C     55.58472231       9.02695437      21.66462948        6 
C     54.16466052       9.04969408      21.66462948        6 
C     56.38213432      10.30069539      21.66462948        6 
C     53.44046425      10.30127172      21.66462948        6 
C     55.58525825      11.57473577      21.66462948        6 
C     54.16521639      11.55254585      21.66462948        6 
C     56.26503450      12.78498684      21.66462948        6 
C     53.45373232      12.78996421      21.66462948        6 
C     55.56847921      13.99965065      21.66462948        6 
C     54.18625943      13.99894391      21.66462948        6 
H     53.66448700       5.64887864      21.66462948        1 
H     53.66634585      14.95355386      21.66462948        1 
H     56.11225257       5.65837454      21.66462948        1 
H     56.11407433      14.94312924      21.66462948        1 
H     57.05431030      10.30057835      22.53939815        1 
H     57.05447207      10.30057860      20.79000828        1 
H     57.35557224       7.81751058      21.66462948        1 
H     57.35656245      12.78356034      21.66462948        1 
