12
Lattice="5.117 0.0 0.0 0.0 5.175 0.0 -0.8477544617904331 0.0 5.222642374556621" Properties=species:S:1:pos:R:3:tags:I:1 spacegroup="P 21/c" unit_cell=conventional pbc="T T T"
Hf       1.23595907       0.20700000       1.08630961        0 
Hf       3.45716370       2.79450000       1.52501157        0 
Hf       3.03328647       4.96800000       4.13633276        0 
Hf       0.81208184       2.38050000       3.69763080        0 
O       0.08448720       1.71810000       1.81225690        1 
O       4.60863557       4.30560000       0.79906428        1 
O       4.18475834       3.45690000       3.41038547        1 
O      -0.33939003       0.86940000       4.42357809        1 
O       1.89061086       3.92265000       2.50686834        2 
O       2.80251191       1.33515000       0.10445285        2 
O       2.37863468       1.25235000       2.71577403        2 
O       1.46673363       3.83985000       5.11818953        2 
