
     Program PWSCF v.6.3MaX starts on 16May2019 at 17:11:52 

     This program is part of the open-source Quantum ESPRESSO suite
     for quantum simulation of materials; please cite
         "P. Giannozzi et al., J. Phys.:Condens. Matter 21 395502 (2009);
         "P. Giannozzi et al., J. Phys.:Condens. Matter 29 465901 (2017);
          URL http://www.quantum-espresso.org", 
     in publications or presentations arising from this work. More details at
     http://www.quantum-espresso.org/quote

     Parallel version (MPI & OpenMP), running on      12 processor cores
     Number of MPI processes:                12
     Threads/MPI process:                     1

     MPI processes distributed on     1 nodes
     R & G space division:  proc/nbgrp/npool/nimage =      12
     Waiting for input...
     Reading input from standard input

     Current dimensions of program PWSCF are:
     Max number of different atomic species (ntypx) = 10
     Max number of k-points (npk) =  40000
     Max angular momentum in pseudopotentials (lmaxx) =  3
     Message from routine read_upf::
     Pseudo file ../pseudo/H.pbe-rrkjus_psl.0.1.UPF has been successfully fixed on the fly.
To avoid this message in the future you can permanently fix 
 your pseudo files following instructions given in: 
https://gitlab.com/QEF/q-e/blob/master/upftools/how_to_fix_upf.md

     Subspace diagonalization in iterative solution of the eigenvalue problem:
     one sub-group per band group will be used
     scalapack distributed-memory algorithm (size of sub-group:  2*  2 procs)

     Found symmetry operation: I + (  0.5000  0.0000  0.0000)
     This is a supercell, fractional translations are disabled
 
     Parallelization info
     --------------------
     sticks:   dense  smooth     PW     G-vecs:    dense   smooth      PW
     Min         977     488    130                91091    32198    4470
     Max         978     492    131                91094    32199    4473
     Sum       11731    5867   1569              1093113   386381   53663
 


     bravais-lattice index     =            8
     lattice parameter (alat)  =      16.2512  a.u.
     unit-cell volume          =   17410.2013 (a.u.)^3
     number of atoms/cell      =           36
     number of atomic types    =            2
     number of electrons       =       120.00
     number of Kohn-Sham states=           72
     kinetic-energy cutoff     =      30.0000  Ry
     charge density cutoff     =     240.0000  Ry
     convergence threshold     =      1.0E-08
     mixing beta               =       0.2500
     number of iterations used =            8  plain     mixing
     Exchange-correlation      = PBE ( 1  4  3  4 0 0)

     celldm(1)=  16.251176  celldm(2)=   2.325648  celldm(3)=   1.744236
     celldm(4)=   0.000000  celldm(5)=   0.000000  celldm(6)=   0.000000

     crystal axes: (cart. coord. in units of alat)
               a(1) = (   1.000000   0.000000   0.000000 )  
               a(2) = (   0.000000   2.325648   0.000000 )  
               a(3) = (   0.000000   0.000000   1.744236 )  

     reciprocal axes: (cart. coord. in units 2 pi/alat)
               b(1) = (  1.000000  0.000000  0.000000 )  
               b(2) = (  0.000000  0.429988  0.000000 )  
               b(3) = (  0.000000  0.000000  0.573317 )  


     PseudoPot. # 1 for C  read from file:
     ../pseudo/C_pbe_v1.2.uspp.F.UPF
     MD5 check sum: d1aef80898a10debaa0f26306b886e00
     Pseudo is Ultrasoft + core correction, Zval =  4.0
     Generated by new atomic code, or converted to UPF format
     Using radial grid of  721 points,  4 beta functions with: 
                l(1) =   0
                l(2) =   0
                l(3) =   1
                l(4) =   1
     Q(r) pseudized with  8 coefficients,  rinner =    1.100   1.100   1.100


     PseudoPot. # 2 for H  read from file:
     ../pseudo/H.pbe-rrkjus_psl.0.1.UPF
     MD5 check sum: 36633979392af7100e6f6632747262d3
     Pseudo is Ultrasoft, Zval =  1.0
     Generated using "atomic" code by A. Dal Corso v.5.0.99 svn rev. 10869
     Using radial grid of  929 points,  2 beta functions with: 
                l(1) =   0
                l(2) =   0
     Q(r) pseudized with 0 coefficients 


     atomic species   valence    mass     pseudopotential
        C              4.00    12.01070     C ( 1.00)
        H              1.00     1.00794     H ( 1.00)

      2 Sym. Ops. (no inversion) found



   Cartesian axes

     site n.     atom                  positions (alat units)
         1           C   tau(   1) = (   0.0876522   0.1114401   0.8721182  )
         2           C   tau(   2) = (   0.2470130   0.1114401   0.8721182  )
         3           C   tau(   3) = (   0.0010860   0.2516425   0.8721182  )
         4           C   tau(   4) = (   0.0838702   0.3945984   0.8721182  )
         5           C   tau(   5) = (   0.2507950   0.3945984   0.8721182  )
         6           C   tau(   6) = (   0.3335792   0.2516425   0.8721182  )
         7           C   tau(   7) = (   0.3346651   0.5383671   0.8721182  )
         8           C   tau(   8) = (   0.2507950   0.6821357   0.8721182  )
         9           C   tau(   9) = (   0.0838702   0.6821357   0.8721182  )
        10           C   tau(  10) = (   0.0000000   0.5383671   0.8721182  )
        11           C   tau(  11) = (   0.0010860   0.8250916   0.8721182  )
        12           C   tau(  12) = (   0.0876522   0.9652940   0.8721182  )
        13           C   tau(  13) = (   0.2470130   0.9652940   0.8721182  )
        14           C   tau(  14) = (   0.3335792   0.8250916   0.8721182  )
        15           H   tau(  15) = (   0.0278714   1.0767341   0.8721182  )
        16           H   tau(  16) = (   0.3067937   1.0767341   0.8721182  )
        17           H   tau(  17) = (   0.0278714   0.0000000   0.8721182  )
        18           H   tau(  18) = (   0.3067937   0.0000000   0.8721182  )
        19           C   tau(  19) = (   0.5876522   0.1114401   0.8721182  )
        20           C   tau(  20) = (   0.7470130   0.1114401   0.8721182  )
        21           C   tau(  21) = (   0.5010860   0.2516425   0.8721182  )
        22           C   tau(  22) = (   0.5838702   0.3945984   0.8721182  )
        23           C   tau(  23) = (   0.7507950   0.3945984   0.8721182  )
        24           C   tau(  24) = (   0.8335792   0.2516425   0.8721182  )
        25           C   tau(  25) = (   0.8346651   0.5383671   0.8721182  )
        26           C   tau(  26) = (   0.7507950   0.6821357   0.8721182  )
        27           C   tau(  27) = (   0.5838702   0.6821357   0.8721182  )
        28           C   tau(  28) = (   0.5000000   0.5383671   0.8721182  )
        29           C   tau(  29) = (   0.5010860   0.8250916   0.8721182  )
        30           C   tau(  30) = (   0.5876522   0.9652940   0.8721182  )
        31           C   tau(  31) = (   0.7470130   0.9652940   0.8721182  )
        32           C   tau(  32) = (   0.8335792   0.8250916   0.8721182  )
        33           H   tau(  33) = (   0.5278714   1.0767341   0.8721182  )
        34           H   tau(  34) = (   0.8067937   1.0767341   0.8721182  )
        35           H   tau(  35) = (   0.5278714   0.0000000   0.8721182  )
        36           H   tau(  36) = (   0.8067937   0.0000000   0.8721182  )

     number of k points=     6  gaussian smearing, width (Ry)=  0.0010
                       cart. coord. in units 2pi/alat
        k(    1) = (   0.0000000   0.0000000   0.0000000), wk =   0.2000000
        k(    2) = (   0.1000000   0.0000000   0.0000000), wk =   0.4000000
        k(    3) = (   0.2000000   0.0000000   0.0000000), wk =   0.4000000
        k(    4) = (   0.3000000   0.0000000   0.0000000), wk =   0.4000000
        k(    5) = (   0.4000000   0.0000000   0.0000000), wk =   0.4000000
        k(    6) = (  -0.5000000   0.0000000   0.0000000), wk =   0.2000000

     Dense  grid:  1093113 G-vectors     FFT dimensions: (  81, 192, 144)

     Smooth grid:   386381 G-vectors     FFT dimensions: (  60, 135, 100)

     Estimated max dynamical RAM per process >     199.24 MB

     Estimated total dynamical RAM >       2.33 GB

     Initial potential from superposition of free atoms
     Check: negative starting charge=   -0.005510

     starting charge  119.99879, renormalised to  120.00000

     negative rho (up, down):  5.510E-03 0.000E+00
     Starting wfcs are  120 randomized atomic wfcs

     total cpu time spent up to now is        5.1 secs

     Self-consistent Calculation

     iteration #  1     ecut=    30.00 Ry     beta= 0.25
     Davidson diagonalization with overlap
     ethr =  1.00E-02,  avg # of iterations =  2.0

     negative rho (up, down):  3.501E-03 0.000E+00

     total cpu time spent up to now is       11.3 secs

     total energy              =    -331.46240313 Ry
     Harris-Foulkes estimate   =    -332.63123559 Ry
     estimated scf accuracy    <       3.86152663 Ry

     iteration #  2     ecut=    30.00 Ry     beta= 0.25
     Davidson diagonalization with overlap
     ethr =  3.22E-03,  avg # of iterations =  1.0

     negative rho (up, down):  4.353E-03 0.000E+00

     total cpu time spent up to now is       15.8 secs

     total energy              =    -330.76424195 Ry
     Harris-Foulkes estimate   =    -331.57763904 Ry
     estimated scf accuracy    <       1.47165517 Ry

     iteration #  3     ecut=    30.00 Ry     beta= 0.25
     Davidson diagonalization with overlap
     ethr =  1.23E-03,  avg # of iterations =  8.3

     negative rho (up, down):  3.176E-03 0.000E+00

     total cpu time spent up to now is       23.7 secs

     total energy              =    -330.99417617 Ry
     Harris-Foulkes estimate   =    -331.03181589 Ry
     estimated scf accuracy    <       0.11417329 Ry

     iteration #  4     ecut=    30.00 Ry     beta= 0.25
     Davidson diagonalization with overlap
     ethr =  9.51E-05,  avg # of iterations = 13.2

     negative rho (up, down):  4.382E-03 0.000E+00

     total cpu time spent up to now is       31.8 secs

     total energy              =    -330.99581328 Ry
     Harris-Foulkes estimate   =    -331.00623762 Ry
     estimated scf accuracy    <       0.03236109 Ry

     iteration #  5     ecut=    30.00 Ry     beta= 0.25
     Davidson diagonalization with overlap
     c_bands:  2 eigenvalues not converged
     ethr =  2.70E-05,  avg # of iterations =  6.0

     negative rho (up, down):  3.135E-03 0.000E+00

     total cpu time spent up to now is       38.0 secs

     total energy              =    -330.99858643 Ry
     Harris-Foulkes estimate   =    -330.99961271 Ry
     estimated scf accuracy    <       0.00281596 Ry

     iteration #  6     ecut=    30.00 Ry     beta= 0.25
     Davidson diagonalization with overlap
     ethr =  2.35E-06,  avg # of iterations =  5.3

     negative rho (up, down):  2.791E-03 0.000E+00

     total cpu time spent up to now is       44.3 secs

     total energy              =    -330.99900029 Ry
     Harris-Foulkes estimate   =    -330.99898354 Ry
     estimated scf accuracy    <       0.00060386 Ry

     iteration #  7     ecut=    30.00 Ry     beta= 0.25
     Davidson diagonalization with overlap
     ethr =  5.03E-07,  avg # of iterations =  1.3

     negative rho (up, down):  2.383E-03 0.000E+00

     total cpu time spent up to now is       48.9 secs

     total energy              =    -330.99899448 Ry
     Harris-Foulkes estimate   =    -330.99902821 Ry
     estimated scf accuracy    <       0.00006275 Ry

     iteration #  8     ecut=    30.00 Ry     beta= 0.25
     Davidson diagonalization with overlap
     ethr =  5.23E-08,  avg # of iterations =  2.0

     negative rho (up, down):  2.150E-03 0.000E+00

     total cpu time spent up to now is       54.8 secs

     total energy              =    -330.99900541 Ry
     Harris-Foulkes estimate   =    -330.99902686 Ry
     estimated scf accuracy    <       0.00004213 Ry

     iteration #  9     ecut=    30.00 Ry     beta= 0.25
     Davidson diagonalization with overlap
     ethr =  3.51E-08,  avg # of iterations =  2.0

     negative rho (up, down):  2.075E-03 0.000E+00

     total cpu time spent up to now is       60.2 secs

     total energy              =    -330.99901466 Ry
     Harris-Foulkes estimate   =    -330.99901369 Ry
     estimated scf accuracy    <       0.00000109 Ry

     iteration # 10     ecut=    30.00 Ry     beta= 0.25
     Davidson diagonalization with overlap
     ethr =  9.08E-10,  avg # of iterations =  2.5

     negative rho (up, down):  2.076E-03 0.000E+00

     total cpu time spent up to now is       65.9 secs

     total energy              =    -330.99901566 Ry
     Harris-Foulkes estimate   =    -330.99901487 Ry
     estimated scf accuracy    <       0.00000010 Ry

     iteration # 11     ecut=    30.00 Ry     beta= 0.25
     Davidson diagonalization with overlap
     ethr =  8.71E-11,  avg # of iterations =  3.0

     negative rho (up, down):  2.110E-03 0.000E+00

     total cpu time spent up to now is       72.1 secs

     total energy              =    -330.99901628 Ry
     Harris-Foulkes estimate   =    -330.99901570 Ry
     estimated scf accuracy    <       0.00000007 Ry

     iteration # 12     ecut=    30.00 Ry     beta= 0.25
     Davidson diagonalization with overlap
     ethr =  5.81E-11,  avg # of iterations =  2.3

     negative rho (up, down):  2.152E-03 0.000E+00

     total cpu time spent up to now is       77.8 secs

     total energy              =    -330.99901672 Ry
     Harris-Foulkes estimate   =    -330.99901630 Ry
     estimated scf accuracy    <       0.00000001 Ry

     iteration # 13     ecut=    30.00 Ry     beta= 0.25
     Davidson diagonalization with overlap
     ethr =  9.84E-12,  avg # of iterations =  2.7

     negative rho (up, down):  2.362E-03 0.000E+00

     total cpu time spent up to now is       83.3 secs

     End of self-consistent calculation

          k = 0.0000 0.0000 0.0000 ( 48321 PWs)   bands (ev):

   -21.9340 -21.0899 -20.5420 -20.4611 -19.8457 -19.7111 -19.5056 -18.5814
   -18.1002 -17.9686 -17.2230 -16.8341 -16.1937 -16.0777 -15.7089 -15.4791
   -15.2939 -14.7810 -14.5799 -13.6039 -13.1058 -12.7845 -12.7407 -12.4827
   -11.4454 -11.2034 -11.1958 -11.1075 -10.5904 -10.3363 -10.0263  -9.6070
    -9.4992  -9.4578  -9.4488  -9.3595  -9.3339  -9.1475  -9.0731  -8.9088
    -8.8775  -8.8685  -8.3587  -8.3293  -8.3160  -7.9759  -7.6569  -7.5555
    -7.5403  -7.3240  -7.3056  -6.3812  -6.2582  -6.1247  -5.9827  -5.6322
    -5.2673  -4.8346  -3.7997  -3.6183  -2.0473  -1.9679  -1.2813  -1.0056
     0.0206   0.1740   0.2371   0.2463   0.4381   0.6831   1.1852   1.3249

          k = 0.1000 0.0000 0.0000 ( 48321 PWs)   bands (ev):

   -21.9195 -21.0757 -20.7736 -20.2035 -19.9875 -19.6978 -19.3387 -18.6804
   -17.9799 -17.9588 -17.2509 -17.0432 -16.2918 -16.1997 -15.4962 -15.4279
   -15.0793 -14.8339 -14.6281 -13.5321 -13.2345 -12.7056 -12.6402 -12.5523
   -11.3728 -11.3483 -11.1171 -11.0067 -10.9960 -10.0779 -10.0090  -9.8966
    -9.6080  -9.5558  -9.4523  -9.3074  -9.1915  -9.1397  -9.0564  -8.8160
    -8.8070  -8.7151  -8.6520  -8.4482  -7.9946  -7.8394  -7.7544  -7.6400
    -7.5406  -7.3524  -7.0824  -6.4111  -6.4098  -6.1571  -5.8123  -5.6250
    -5.2770  -4.9327  -3.9349  -3.6786  -1.9996  -1.8280  -1.1646  -0.9789
    -0.1967   0.1413   0.2658   0.4576   0.4661   0.7029   1.1610   1.3441

          k = 0.2000 0.0000 0.0000 ( 48316 PWs)   bands (ev):

   -21.8761 -21.0333 -21.0144 -20.2025 -19.8861 -19.6580 -19.0486 -18.8576
   -17.9306 -17.7384 -17.4472 -17.3243 -16.6798 -16.2636 -15.2846 -15.0567
   -14.9357 -14.7400 -14.6947 -13.4903 -13.3497 -12.7226 -12.5600 -12.3770
   -11.5894 -11.5547 -11.2071 -10.8984 -10.8927 -10.3463 -10.0713  -9.9573
    -9.8501  -9.6368  -9.2807  -9.2767  -9.1742  -9.1736  -9.0062  -8.9357
    -8.6627  -8.6478  -8.5119  -8.3884  -8.0210  -7.6278  -7.6069  -7.5974
    -7.4960  -7.4852  -6.7336  -6.6272  -6.5053  -6.2518  -5.6042  -5.5385
    -5.3045  -5.1940  -4.2576  -3.8415  -1.8726  -1.4911  -0.9012  -0.8482
    -0.4811   0.0484   0.3242   0.5158   0.7623   0.7838   1.2436   1.2650

          k = 0.3000 0.0000 0.0000 ( 48332 PWs)   bands (ev):

   -21.8038 -21.2285 -20.9626 -20.4050 -19.5924 -19.5534 -19.0243 -18.7233
   -17.8914 -17.8842 -17.4594 -17.4211 -17.0831 -16.4026 -15.0715 -15.0552
   -14.8670 -14.5037 -14.3276 -13.7593 -13.1074 -12.9439 -12.3691 -12.1379
   -12.0385 -11.8478 -11.1242 -10.7908 -10.6540 -10.5936 -10.3071 -10.1649
    -9.8711  -9.7670  -9.3623  -9.3073  -9.1883  -9.0045  -8.9581  -8.9227
    -8.8289  -8.5669  -8.2632  -8.1938  -7.9975  -7.6866  -7.5939  -7.4222
    -7.3356  -7.2444  -6.8246  -6.6722  -6.4014  -6.3568  -5.5724  -5.5544
    -5.3449  -5.2438  -4.6571  -4.0727  -1.6954  -1.0676  -0.7794  -0.7558
    -0.3973  -0.0905   0.4216   0.6125   0.7915   0.8615   1.1072   1.3260

          k = 0.4000 0.0000 0.0000 ( 48268 PWs)   bands (ev):

   -21.7027 -21.4148 -20.8640 -20.5843 -19.5025 -19.3190 -19.0508 -18.3797
   -18.3148 -17.8777 -17.5169 -17.4361 -17.1672 -16.6147 -15.0897 -14.9799
   -14.8109 -14.2612 -13.9395 -13.7665 -13.1978 -12.8945 -12.6657 -12.1946
   -12.1148 -11.5796 -11.4167 -10.7085 -10.6698 -10.5357 -10.3645 -10.2773
    -9.9832  -9.7508  -9.6186  -9.4089  -9.2464  -8.9946  -8.8435  -8.8061
    -8.7268  -8.4757  -8.4602  -7.9363  -7.9305  -7.6324  -7.5986  -7.3200
    -7.0737  -7.0516  -6.9154  -6.7898  -6.5956  -5.9625  -5.9622  -5.5378
    -5.3894  -5.0737  -4.9407  -4.3442  -1.4883  -1.0161  -0.6248  -0.6154
    -0.2544   0.1341   0.3320   0.5578   0.7473   0.9448   1.0004   1.1300

          k =-0.5000 0.0000 0.0000 ( 48248 PWs)   bands (ev):

   -21.5730 -21.5730 -20.7377 -20.7377 -19.3941 -19.3940 -18.7222 -18.7222
   -18.0493 -18.0493 -17.5720 -17.5720 -16.8786 -16.8785 -15.0598 -15.0598
   -14.5243 -14.5243 -13.4816 -13.4816 -13.3600 -13.3600 -12.4944 -12.4944
   -11.7905 -11.7905 -11.1455 -11.1455 -10.5287 -10.5287 -10.2872 -10.2872
    -9.9119  -9.9118  -9.5965  -9.5965  -9.1364  -9.1364  -8.7284  -8.7284
    -8.6570  -8.6569  -8.2127  -8.2127  -7.7421  -7.7421  -7.2294  -7.2294
    -7.1915  -7.1915  -6.8234  -6.8234  -6.3847  -6.3847  -5.5981  -5.5981
    -5.3899  -5.3899  -4.6377  -4.6377  -1.2606  -1.2606  -0.4552  -0.4552
    -0.1282  -0.1282   0.7099   0.7099   0.7324   0.7324   0.9200   0.9201

     the Fermi energy is    -3.0035 ev

!    total energy              =    -330.99901781 Ry
     Harris-Foulkes estimate   =    -330.99901673 Ry
     estimated scf accuracy    <          3.2E-09 Ry

     The total energy is the sum of the following terms:

     one-electron contribution =   -2540.80653033 Ry
     hartree contribution      =    1286.66436068 Ry
     xc contribution           =    -107.15904185 Ry
     ewald contribution        =    1030.30219370 Ry
     smearing contrib. (-TS)   =      -0.00000000 Ry

     convergence has been achieved in  13 iterations

     Writing output data file 7agnr_2uc.save/
 
     init_run     :      3.82s CPU      4.09s WALL (       1 calls)
     electrons    :     74.67s CPU     78.31s WALL (       1 calls)

     Called by init_run:
     wfcinit      :      2.37s CPU      2.47s WALL (       1 calls)
     potinit      :      0.52s CPU      0.55s WALL (       1 calls)
     hinit0       :      0.51s CPU      0.53s WALL (       1 calls)

     Called by electrons:
     c_bands      :     59.12s CPU     60.18s WALL (      13 calls)
     sum_band     :     11.05s CPU     12.32s WALL (      13 calls)
     v_of_rho     :      2.49s CPU      2.62s WALL (      14 calls)
     newd         :      1.39s CPU      2.54s WALL (      14 calls)
     mix_rho      :      0.58s CPU      0.60s WALL (      13 calls)

     Called by c_bands:
     init_us_2    :      1.18s CPU      1.22s WALL (     162 calls)
     cegterg      :     56.18s CPU     57.14s WALL (      78 calls)

     Called by sum_band:
     sum_band:bec :      0.01s CPU      0.01s WALL (      78 calls)
     addusdens    :      1.63s CPU      2.81s WALL (      13 calls)

     Called by *egterg:
     h_psi        :     38.91s CPU     39.32s WALL (     394 calls)
     s_psi        :      4.24s CPU      4.28s WALL (     394 calls)
     g_psi        :      0.29s CPU      0.33s WALL (     310 calls)
     cdiaghg      :      4.16s CPU      4.24s WALL (     388 calls)

     Called by h_psi:
     h_psi:pot    :     38.31s CPU     38.68s WALL (     394 calls)
     h_psi:calbec :      4.14s CPU      4.17s WALL (     394 calls)
     vloc_psi     :     29.93s CPU     30.25s WALL (     394 calls)
     add_vuspsi   :      4.23s CPU      4.25s WALL (     394 calls)

     General routines
     calbec       :      5.46s CPU      5.48s WALL (     472 calls)
     fft          :      2.65s CPU      2.74s WALL (     181 calls)
     ffts         :      0.06s CPU      0.07s WALL (      27 calls)
     fftw         :     29.37s CPU     29.74s WALL (   36362 calls)
     interpolate  :      0.24s CPU      0.26s WALL (      14 calls)
 
     Parallel routines
     fft_scatt_xy :      4.20s CPU      4.15s WALL (   36570 calls)
     fft_scatt_yz :      8.81s CPU      9.01s WALL (   36570 calls)
 
     PWSCF        :  1m18.78s CPU     1m24.44s WALL

 
   This run was terminated on:  17:13:16  16May2019            

=------------------------------------------------------------------------------=
   JOB DONE.
=------------------------------------------------------------------------------=
