 DBCSR| Multiplication driver                                                SMM
 DBCSR| Multrec recursion limit                                              512
 DBCSR| Multiplication stack size                                          30000
 DBCSR| Maximum elements for images                                    UNLIMITED
 DBCSR| Multiplicative factor virtual images                                   1
 DBCSR| Multiplication size stacks                                             3
 DBCSR| Number of 3D layers                                               SINGLE
 DBCSR| Use MPI memory allocation                                              T
 DBCSR| Use RMA algorithm                                                      F
 DBCSR| Use Communication thread                                               T
 DBCSR| Communication thread load                                             87
 DBCSR| ACC: Number of devices/node                                            1
 DBCSR| ACC: Number of priority stack-buffers                                 40
 DBCSR| ACC: Number of posterior stack-buffers                                80
 DBCSR| ACC: Number of priority streams                                        4
 DBCSR| ACC: Number of posterior streams                                       4
 DBCSR| ACC: Avoid driver after busy                                           F
 DBCSR| ACC: Process inhomogenous stacks                                       T
 DBCSR| ACC: Min. flop for processing                                          0
 DBCSR| ACC: Min. flop for sorting                                          4000
 DBCSR| ACC: Number of binning bins                                         4096
 DBCSR| ACC: Size of binning bins                                             16


  **** **** ******  **  PROGRAM STARTED AT               2019-04-11 17:58:09.503
 ***** ** ***  *** **   PROGRAM STARTED ON                              nid04276
 **    ****   ******    PROGRAM STARTED BY                              dpassero
 ***** **    ** ** **   PROGRAM PROCESS ID                                 18773
  **** **  *******  **  PROGRAM STARTED IN  /scratch/snx3000/dpassero/Exercise-8

 CP2K| version string:                                          CP2K version 6.1
 CP2K| source code revision number:                                    svn:18464
 CP2K| cp2kflags: omp libint fftw3 libxc elpa=201611 elpa_qr parallel mpi3 scala
 CP2K|            pack acc smm_dnn smm dbcsr_acc
 CP2K| is freely available from                            https://www.cp2k.org/
 CP2K| Program compiled at                         Tue Apr  2 14:18:36 CEST 2019
 CP2K| Program compiled on                                              daint101
 CP2K| Program compiled for                      CP2K-6.1-CrayGNU-18.08-cuda-9.1
 CP2K| Data directory path    /apps/daint/UES/jenkins/6.0.UP07/gpu/easybuild/sof
 CP2K| Input file name                                               optc6h6.inp

 GLOBAL| Force Environment number                                              1
 GLOBAL| Basis set file name                                      ./BASIS_MOLOPT
 GLOBAL| Potential file name                                    ./GTH_POTENTIALS
 GLOBAL| MM Potential file name                                     MM_POTENTIAL
 GLOBAL| Coordinate file name                                      ./optc6h6.xyz
 GLOBAL| Method name                                                        CP2K
 GLOBAL| Project name                                                       C6H6
 GLOBAL| Preferred FFT library                                             FFTW3
 GLOBAL| Preferred diagonalization lib.                                       SL
 GLOBAL| Run type                                                        GEO_OPT
 GLOBAL| All-to-all communication in single precision                          F
 GLOBAL| FFTs using library dependent lengths                                  T
 GLOBAL| Global print level                                                  LOW
 GLOBAL| Total number of message passing processes                            12
 GLOBAL| Number of threads for this process                                    1
 GLOBAL| This output is from process                                           0
 GLOBAL| CPU model name :  Intel(R) Xeon(R) CPU E5-2690 v3 @ 2.60GHz

 MEMORY| system memory details [Kb]
 MEMORY|                        rank 0           min           max       average
 MEMORY| MemTotal             65844884      65844884      65844884      65844884
 MEMORY| MemFree              59973572      59973572      59973944      59973913
 MEMORY| Buffers                 19464         19464         19464         19464
 MEMORY| Cached                1561240       1560980       1561240       1561001
 MEMORY| Slab                   188548        188316        188548        188335
 MEMORY| SReclaimable            24156         24060         24156         24068
 MEMORY| MemLikelyFree        61578432      61578432      61578448      61578446


 GENERATE|  Preliminary Number of Bonds generated:                             0
 GENERATE|  Achieved consistency in connectivity generation.

 *******************************************************************************
 *******************************************************************************
 **                                                                           **
 **     #####                         ##              ##                      **
 **    ##   ##            ##          ##              ##                      **
 **   ##     ##                       ##            ######                    **
 **   ##     ##  ##   ##  ##   #####  ##  ##   ####   ##    #####    #####    **
 **   ##     ##  ##   ##  ##  ##      ## ##   ##      ##   ##   ##  ##   ##   **
 **   ##  ## ##  ##   ##  ##  ##      ####     ###    ##   ######   ######    **
 **    ##  ###   ##   ##  ##  ##      ## ##      ##   ##   ##       ##        **
 **     #######   #####   ##   #####  ##  ##  ####    ##    #####   ##        **
 **           ##                                                    ##        **
 **                                                                           **
 **                                                ... make the atoms dance   **
 **                                                                           **
 **            Copyright (C) by CP2K developers group (2000 - 2018)           **
 **                                                                           **
 *******************************************************************************

 *** WARNING in qs_environment.F:1142 :: More added MOs requested than ***
 *** available. The full set of unoccupied MOs will be used.           ***



 TOTAL NUMBERS AND MAXIMUM NUMBERS

  Total number of            - Atomic kinds:                                   2
                             - Atoms:                                         12
                             - Shell sets:                                    12
                             - Shells:                                        18
                             - Primitive Cartesian functions:                 84
                             - Cartesian basis functions:                     30
                             - Spherical basis functions:                     30

  Maximum angular momentum of- Orbital basis functions:                        1
                             - Local part of the GTH pseudopotential:          2
                             - Non-local part of the GTH pseudopotential:      0


 SCF PARAMETERS         Density guess:                                   RESTART
                        --------------------------------------------------------
                        max_scf:                                             100
                        max_scf_history:                                       0
                        max_diis:                                              4
                        --------------------------------------------------------
                        eps_scf:                                        1.00E-06
                        eps_scf_history:                                0.00E+00
                        eps_diis:                                       1.00E-01
                        eps_eigval:                                     1.00E-05
                        --------------------------------------------------------
                        level_shift [a.u.]:                                 0.00
                        added MOs                                        15    0
                        --------------------------------------------------------
                        Mixing method:                           DIRECT_P_MIXING
                        --------------------------------------------------------
                        Outer loop SCF in use 
                        No variables optimised in outer loop
                        eps_scf                                         1.00E-06
                        max_scf                                               15
                        No outer loop optimization
                        step_size                                       5.00E-01

 BFGS| Use rational function optimization for step estimation:                NO
 BFGS| Use model Hessian for initial guess:                                  YES
 BFGS| Restart Hessian:                                                       NO
 BFGS| Trust radius:                                                       0.472

 *******************************************************************************
 ***                     STARTING GEOMETRY OPTIMIZATION                      ***
 ***                                   BFGS                                  ***
 *******************************************************************************

 Number of electrons:                                                         30
 Number of occupied orbitals:                                                 15
 Number of molecular orbitals:                                                30

 Number of orbital functions:                                                 30
 Number of independent orbital functions:                                     30

 Extrapolation method: initial_guess

 *** WARNING in qs_initial_guess.F:263 :: User requested to restart the    ***
 *** wavefunction from the file named: C6H6-RESTART.wfn. This file does    ***
 *** not exist. Please check the existence of the file or change properly  ***
 *** the value of the keyword WFN_RESTART_FILE_NAME. Calculation continues ***
 *** using ATOMIC GUESS.                                                   ***



 SCF WAVEFUNCTION OPTIMIZATION

  Step     Update method      Time    Convergence         Total energy    Change
  ------------------------------------------------------------------------------
     1 P_Mix/Diag. 0.40E+00    1.0     1.26119628       -35.4444081433 -3.54E+01
     2 P_Mix/Diag. 0.40E+00    0.3     0.77829327       -36.2706232377 -8.26E-01
     3 P_Mix/Diag. 0.40E+00    0.3     0.47416851       -36.7636725327 -4.93E-01
     4 P_Mix/Diag. 0.40E+00    0.3     0.28700974       -37.0591359657 -2.95E-01
     5 P_Mix/Diag. 0.40E+00    0.3     0.17317505       -37.2363432919 -1.77E-01
     6 P_Mix/Diag. 0.40E+00    0.3     0.10432137       -37.3426492307 -1.06E-01
     7 P_Mix/Diag. 0.40E+00    0.3     0.06279124       -37.4064271563 -6.38E-02
     8 DIIS/Diag.  0.10E-03    0.3     0.03791247       -37.4446920774 -3.83E-02
     9 DIIS/Diag.  0.63E-06    0.3     0.00000093       -37.5020871543 -5.74E-02

  *** SCF run converged in     9 steps ***


  Electronic density on regular grids:        -30.0000000006       -0.0000000006
  Core density on regular grids:               30.0000000000       -0.0000000000
  Total charge density on r-space grids:       -0.0000000006
  Total charge density g-space grids:          -0.0000000006

  Overlap energy of the core charge distribution:               0.00000517778192
  Self energy of the core charge distribution:                -88.47289131380761
  Core Hamiltonian energy:                                     28.91792454300401
  Hartree energy:                                              34.81486151602931
  Exchange-correlation energy:                                -12.76198707727428

  Total energy:                                               -37.50208715426665

  outer SCF iter =    1 RMS gradient =   0.00E+00 energy =        -37.5020871543
  outer SCF loop converged in   1 iterations or    9 steps


 ELECTRIC/MAGNETIC MOMENTS
  Reference Point [Bohr]           0.00000000    0.00000000    0.00000000
  Charges
    Electronic=    -30.00000000    Core=    30.00000000    Total=      0.00000000
  Dipoles are based on the traditional operator.
  Dipole moment [Debye]
    X=   -0.00000257 Y=   -0.00000578 Z=    0.00000000     Total=      0.00000633

 ENERGY| Total FORCE_EVAL ( QS ) energy (a.u.):              -37.502087154266320


 --------  Informations at step =     0 ------------
  Optimization Method        =                 BFGS
  Total Energy               =       -37.5020871543
  Used time                  =                3.630
 ---------------------------------------------------

 --------------------------
 OPTIMIZATION STEP:      1
 --------------------------

 Number of electrons:                                                         30
 Number of occupied orbitals:                                                 15
 Number of molecular orbitals:                                                30

 Number of orbital functions:                                                 30
 Number of independent orbital functions:                                     30

 Extrapolation method: ASPC


 SCF WAVEFUNCTION OPTIMIZATION

  Step     Update method      Time    Convergence         Total energy    Change
  ------------------------------------------------------------------------------
     1 P_Mix/Diag. 0.40E+00    0.2     0.00004367       -37.5020871458 -3.75E+01
     2 P_Mix/Diag. 0.40E+00    0.3     0.00001632       -37.5020871473 -1.50E-09
     3 DIIS/Diag.  0.16E-05    0.3     0.00000968       -37.5020871482 -9.19E-10
     4 DIIS/Diag.  0.88E-06    0.3     0.00000039       -37.5020871496 -1.38E-09

  *** SCF run converged in     4 steps ***


  Electronic density on regular grids:        -30.0000000006       -0.0000000006
  Core density on regular grids:               30.0000000000       -0.0000000000
  Total charge density on r-space grids:       -0.0000000006
  Total charge density g-space grids:          -0.0000000006

  Overlap energy of the core charge distribution:               0.00000517855508
  Self energy of the core charge distribution:                -88.47289131380761
  Core Hamiltonian energy:                                     28.91804534497684
  Hartree energy:                                              34.81477993702767
  Exchange-correlation energy:                                -12.76202629631910

  Total energy:                                               -37.50208714956712

  outer SCF iter =    1 RMS gradient =   0.00E+00 energy =        -37.5020871496
  outer SCF loop converged in   1 iterations or    4 steps


 ELECTRIC/MAGNETIC MOMENTS
  Reference Point [Bohr]           0.00000000    0.00000000    0.00000000
  Charges
    Electronic=    -30.00000000    Core=    30.00000000    Total=      0.00000000
  Dipoles are based on the traditional operator.
  Dipole moment [Debye]
    X=    0.00000141 Y=    0.00001103 Z=   -0.00000000     Total=      0.00001112

 ENERGY| Total FORCE_EVAL ( QS ) energy (a.u.):              -37.502087149567615


 --------  Informations at step =     1 ------------
  Optimization Method        =                 BFGS
  Total Energy               =       -37.5020871496
  Real energy change         =         0.0000000047
  Predicted change in energy =        -0.0000000155
  Scaling factor             =         0.0000000000
  Step size                  =         0.0001858808
  Trust radius               =         0.4724315332
  Decrease in energy         =                   NO
  Used time                  =                1.419

  Convergence check :
  Max. step size             =         0.0001858808
  Conv. limit for step size  =         0.0030000000
  Convergence in step size   =                  YES
  RMS step size              =         0.0000851791
  Conv. limit for RMS step   =         0.0015000000
  Convergence in RMS step    =                  YES
  Max. gradient              =         0.0000456938
  Conv. limit for gradients  =         0.0000500000
  Conv. in gradients         =                  YES
  RMS gradient               =         0.0000179393
  Conv. limit for RMS grad.  =         0.0003000000
  Conv. in RMS gradients     =                  YES
 ---------------------------------------------------

 *******************************************************************************
 ***                    GEOMETRY OPTIMIZATION COMPLETED                      ***
 *******************************************************************************

                    Reevaluating energy at the minimum

 Number of electrons:                                                         30
 Number of occupied orbitals:                                                 15
 Number of molecular orbitals:                                                30

 Number of orbital functions:                                                 30
 Number of independent orbital functions:                                     30

 Extrapolation method: ASPC


 SCF WAVEFUNCTION OPTIMIZATION

  Step     Update method      Time    Convergence         Total energy    Change
  ------------------------------------------------------------------------------
     1 P_Mix/Diag. 0.40E+00    0.2     0.00000037       -37.5020871496 -3.75E+01

  *** SCF run converged in     1 steps ***


  Electronic density on regular grids:        -30.0000000006       -0.0000000006
  Core density on regular grids:               30.0000000000       -0.0000000000
  Total charge density on r-space grids:       -0.0000000006
  Total charge density g-space grids:          -0.0000000006

  Overlap energy of the core charge distribution:               0.00000517855508
  Self energy of the core charge distribution:                -88.47289131380761
  Core Hamiltonian energy:                                     28.91804509977059
  Hartree energy:                                              34.81478015142110
  Exchange-correlation energy:                                -12.76202626550679

  Total energy:                                               -37.50208714956763

  outer SCF iter =    1 RMS gradient =   0.00E+00 energy =        -37.5020871496
  outer SCF loop converged in   1 iterations or    1 steps


 ELECTRIC/MAGNETIC MOMENTS
  Reference Point [Bohr]           0.00000000    0.00000000    0.00000000
  Charges
    Electronic=    -30.00000000    Core=    30.00000000    Total=     -0.00000000
  Dipoles are based on the traditional operator.
  Dipole moment [Debye]
    X=    0.00000148 Y=    0.00001072 Z=   -0.00000000     Total=      0.00001082

 ENERGY| Total FORCE_EVAL ( QS ) energy (a.u.):              -37.502087149567629


 -------------------------------------------------------------------------------
 -                                                                             -
 -                                DBCSR STATISTICS                             -
 -                                                                             -
 -------------------------------------------------------------------------------
 COUNTER                                    TOTAL       BLAS       SMM       ACC
 flops     1 x    30 x     1                 2160       0.0%    100.0%      0.0%
 flops     4 x    30 x     1                 8640       0.0%    100.0%      0.0%
 flops     1 x    30 x     4                 8640       0.0%    100.0%      0.0%
 flops     1 x     1 x    30                22680       0.0%    100.0%      0.0%
 flops     4 x    30 x     4                34560       0.0%    100.0%      0.0%
 flops     4 x     1 x    30                64800       0.0%    100.0%      0.0%
 flops     1 x     4 x    30                90720       0.0%    100.0%      0.0%
 flops     4 x     4 x    30               362880       0.0%    100.0%      0.0%
 flops inhomo. stacks                           0       0.0%      0.0%      0.0%
 flops total                       595.080000E+03       0.0%    100.0%      0.0%
 flops max/rank                     90.720000E+03       0.0%    100.0%      0.0%
 matmuls inhomo. stacks                         0       0.0%      0.0%      0.0%
 matmuls total                               1548       0.0%    100.0%      0.0%
 number of processed stacks                   760       0.0%    100.0%      0.0%
 average stack size                                     0.0       2.0       0.0
 marketing flops                   540.000000E+03
 -------------------------------------------------------------------------------
 # multiplications                             19
 max memory usage/rank             192.098304E+06
 # max total images/rank                        3
 # max 3D layers                                1
 # MPI messages exchanged                    4560
 MPI messages size (bytes):
  total size                         1.368000E+06
  min size                           0.000000E+00
  max size                           3.600000E+03
  average size                     300.000000E+00
 MPI breakdown and total messages size (bytes):
             size <=      128                3750                        0
       128 < size <=     8192                 810                  1368000
      8192 < size <=    32768                   0                        0
     32768 < size <=   131072                   0                        0
    131072 < size <=  4194304                   0                        0
   4194304 < size <= 16777216                   0                        0
  16777216 < size                               0                        0
 -------------------------------------------------------------------------------

 *** WARNING in dbcsr/mm/dbcsr_mm.F:268 :: Using a non-square number of ***
 *** MPI ranks might lead to poor performance.                          ***
 *** Used ranks: 12                                                     ***
 *** Suggested: 9 25                                                    ***

 -------------------------------------------------------------------------------

 MEMORY| Estimated peak process memory [MiB]                                 184

 -------------------------------------------------------------------------------
 -                                                                             -
 -                         MESSAGE PASSING PERFORMANCE                         -
 -                                                                             -
 -------------------------------------------------------------------------------

 ROUTINE             CALLS      AVE VOLUME [Bytes]
 MP_Group               36
 MP_Bcast              106                3291767.
 MP_Allreduce          500                    537.
 MP_Sync                21
 MP_Alltoall           993                 682581.
 MP_ISendRecv         1870                 120656.
 MP_Wait              3086
 MP_comm_split          16
 MP_ISend              912                    252.
 MP_IRecv              840                    142.
 MP_Recv                20                   1332.
 MP_Memory            1668
 -------------------------------------------------------------------------------


 -------------------------------------------------------------------------------
 -                                                                             -
 -                           R E F E R E N C E S                               -
 -                                                                             -
 -------------------------------------------------------------------------------
 
 CP2K version 6.1, the CP2K developers group (2018).
 CP2K is freely available from https://www.cp2k.org/ .

 Schuett, Ole; Messmer, Peter; Hutter, Juerg; VandeVondele, Joost. 
 Electronic Structure Calculations on Graphics Processing Units, John Wiley & Sons, Ltd, 173-190 (2016). 
 GPU-Accelerated Sparse Matrix-Matrix Multiplication for Linear Scaling Density Functional Theory.
 http://dx.doi.org/10.1002/9781118670712.ch8


 Borstnik, U; VandeVondele, J; Weber, V; Hutter, J. 
 PARALLEL COMPUTING, 40 (5-6), 47-58 (2014). 
 Sparse matrix multiplication: The distributed block-compressed sparse
 row library.
 http://dx.doi.org/10.1016/j.parco.2014.03.012


 Hutter, J; Iannuzzi, M; Schiffmann, F; VandeVondele, J. 
 WILEY INTERDISCIPLINARY REVIEWS-COMPUTATIONAL MOLECULAR SCIENCE, 4 (1), 15-25 (2014). 
 CP2K: atomistic simulations of condensed matter systems.
 http://dx.doi.org/10.1002/wcms.1159


 VandeVondele, J; Hutter, J. 
 JOURNAL OF CHEMICAL PHYSICS, 127 (11), 114105 (2007). 
 Gaussian basis sets for accurate calculations on molecular systems in
 gas and condensed phases.
 http://dx.doi.org/10.1063/1.2770708


 Krack, M. 
 THEORETICAL CHEMISTRY ACCOUNTS, 114 (1-3), 145-152 (2005). 
 Pseudopotentials for H to Kr optimized for gradient-corrected
 exchange-correlation functionals.
 http://dx.doi.org/10.1007/s00214-005-0655-y


 VandeVondele, J; Krack, M; Mohamed, F; Parrinello, M; Chassaing, T;
 Hutter, J. COMPUTER PHYSICS COMMUNICATIONS, 167 (2), 103-128 (2005). 
 QUICKSTEP: Fast and accurate density functional calculations using a
 mixed Gaussian and plane waves approach.
 http://dx.doi.org/10.1016/j.cpc.2004.12.014


 Frigo, M; Johnson, SG. 
 PROCEEDINGS OF THE IEEE, 93 (2), 216-231 (2005). 
 The design and implementation of FFTW3.
 http://dx.doi.org/10.1109/JPROC.2004.840301


 Kolafa, J. 
 JOURNAL OF COMPUTATIONAL CHEMISTRY, 25 (3), 335-342 (2004). 
 Time-reversible always stable predictor-corrector method for molecular dynamics of polarizable molecules.
 http://dx.doi.org/10.1002/jcc.10385


 Martyna, GJ; Tuckerman, ME. 
 JOURNAL OF CHEMICAL PHYSICS, 110 (6), 2810-2821 (1999). 
 A reciprocal space based method for treating long range interactions in
 ab initio and force-field-based calculations in clusters.
 http://dx.doi.org/10.1063/1.477923


 Hartwigsen, C; Goedecker, S; Hutter, J. 
 PHYSICAL REVIEW B, 58 (7), 3641-3662 (1998). 
 Relativistic separable dual-space Gaussian pseudopotentials from H to Rn.
 http://dx.doi.org/10.1103/PhysRevB.58.3641


 Lippert, G; Hutter, J; Parrinello, M. 
 MOLECULAR PHYSICS, 92 (3), 477-487 (1997). 
 A hybrid Gaussian and plane wave density functional scheme.
 http://dx.doi.org/10.1080/002689797170220


 Perdew, JP; Burke, K; Ernzerhof, M. 
 PHYSICAL REVIEW LETTERS, 77 (18), 3865-3868 (1996). 
 Generalized gradient approximation made simple.
 http://dx.doi.org/10.1103/PhysRevLett.77.3865


 Goedecker, S; Teter, M; Hutter, J. 
 PHYSICAL REVIEW B, 54 (3), 1703-1710 (1996). 
 Separable dual-space Gaussian pseudopotentials.
 http://dx.doi.org/10.1103/PhysRevB.54.1703


 -------------------------------------------------------------------------------
 -                                                                             -
 -                                T I M I N G                                  -
 -                                                                             -
 -------------------------------------------------------------------------------
 SUBROUTINE                       CALLS  ASD         SELF TIME        TOTAL TIME
                                MAXIMUM       AVERAGE  MAXIMUM  AVERAGE  MAXIMUM
 CP2K                                 1  1.0    0.126    0.350    6.379    6.380
 cp_geo_opt                           1  2.0    0.000    0.000    5.459    5.459
 geoopt_bfgs                          1  3.0    0.001    0.001    5.459    5.459
 cp_eval_at                           3  4.0    0.000    0.000    5.441    5.442
 qs_forces                            2  5.0    0.000    0.000    5.040    5.040
 qs_energies                          3  5.7    0.000    0.000    5.000    5.002
 scf_env_do_scf                       3  6.7    0.000    0.000    4.574    4.576
 scf_env_do_scf_inner_loop           14  7.9    0.001    0.002    4.574    4.576
 rebuild_ks_matrix                   16  9.6    0.000    0.000    2.406    2.819
 qs_ks_build_kohn_sham_matrix        16 10.6    0.002    0.002    2.406    2.819
 qs_ks_update_qs_env                 14  8.9    0.000    0.000    2.089    2.442
 qs_scf_new_mos                      14  8.9    0.000    0.000    1.309    1.476
 pw_transfer                        346 13.3    0.016    0.026    1.398    1.450
 qs_vxc_create                       16 11.6    0.000    0.000    1.425    1.433
 xc_vxc_pw_create                    16 12.6    0.012    0.015    1.425    1.432
 fft_wrap_pw1pw2                    314 14.3    0.002    0.003    1.374    1.427
 qs_rho_update_rho                   17  9.0    0.000    0.000    1.392    1.393
 calculate_rho_elec                  17 10.0    0.519    0.985    1.392    1.393
 fft_wrap_pw1pw2_180                181 15.4    0.075    0.086    1.266    1.322
 fft3d_ps                           314 16.3    0.440    0.621    1.161    1.231
 sum_up_and_integrate                16 11.6    0.003    0.003    0.796    1.207
 integrate_v_rspace                  16 12.6    0.549    0.960    0.792    1.204
 density_rs2pw                       17 11.0    0.001    0.001    0.819    1.008
 xc_rho_set_and_dset_create          16 13.6    0.007    0.008    0.692    0.995
 rs_pw_transfer                     170 13.1    0.001    0.002    0.774    0.972
 cp_dbcsr_plus_fm_fm_t_native        18 10.7    0.000    0.000    0.938    0.951
 dbcsr_multiply_generic              19 11.6    0.001    0.001    0.935    0.949
 calculate_dm_sparse                 16  9.9    0.000    0.000    0.928    0.940
 mp_waitall_1                      3086 15.2    0.691    0.912    0.691    0.912
 multiply_cannon                     19 12.6    0.007    0.010    0.883    0.898
 rs_pw_transfer_RS2PW_180            20 12.7    0.047    0.069    0.620    0.814
 mp_alltoall_z22v                   314 18.3    0.648    0.784    0.648    0.784
 dbcsr_mm_multrec_init               19 13.6    0.000    0.000    0.733    0.738
 dbcsr_mm_csr_init                   19 14.6    0.000    0.001    0.733    0.738
 dbcsr_mm_sched_init                 19 15.6    0.000    0.000    0.733    0.737
 dbcsr_mm_accdrv_init                19 16.6    0.686    0.719    0.733    0.737
 xc_functional_eval                  16 14.6    0.000    0.000    0.380    0.692
 pbe_lda_eval                        16 15.6    0.379    0.692    0.379    0.692
 yz_to_x                            136 16.8    0.023    0.031    0.506    0.615
 copy_dbcsr_to_fm                    29 10.1    0.000    0.001    0.370    0.535
 mp_alltoall_i22                     95 12.7    0.364    0.530    0.364    0.530
 dbcsr_desymmetrize_deep             29 11.1    0.001    0.001    0.361    0.526
 qs_ks_update_qs_env_forces           2  6.0    0.000    0.000    0.319    0.378
 dbcsr_finalize_lib                   1  2.0    0.296    0.300    0.337    0.339
 parser_read_line                  4122  4.0    0.001    0.003    0.276    0.300
 parser_read_line_low                 9  5.2    0.005    0.015    0.275    0.299
 broadcast_input_information          9  6.2    0.000    0.000    0.269    0.295
 mp_bcast_i                          55  5.6    0.263    0.290    0.263    0.290
 init_scf_run                         3  6.7    0.000    0.000    0.286    0.286
 scf_env_initial_rho_setup            3  7.7    0.000    0.000    0.281    0.281
 topology_control                     1  2.0    0.000    0.000    0.231    0.252
 coordinate_control                   1  3.0    0.001    0.002    0.230    0.251
 coordinate_control_READ_COORDI       1  4.0    0.000    0.000    0.229    0.251
 read_coordinate_xyz                  1  5.0    0.001    0.002    0.229    0.251
 potential_pw2rs                     16 13.6    0.001    0.001    0.241    0.241
 x_to_yz                            145 17.8    0.040    0.043    0.204    0.228
 wfi_extrapolate                      3  8.7    0.000    0.000    0.186    0.186
 pw_gather_p                        153 15.7    0.070    0.158    0.070    0.158
 qs_init_subsys                       1  2.0    0.001    0.001    0.156    0.156
 qs_env_setup                         1  3.0    0.000    0.000    0.153    0.153
 qs_env_rebuild_pw_env                6  6.0    0.000    0.000    0.153    0.153
 pw_env_rebuild                       1  5.0    0.000    0.001    0.153    0.153
 pw_grid_setup                        6  6.0    0.001    0.002    0.137    0.137
 pw_grid_setup_internal               6  7.0    0.001    0.002    0.136    0.136
 -------------------------------------------------------------------------------

 The number of warnings for this run is : 3
 
 -------------------------------------------------------------------------------
  **** **** ******  **  PROGRAM ENDED AT                 2019-04-11 17:58:17.243
 ***** ** ***  *** **   PROGRAM RAN ON                                  nid04276
 **    ****   ******    PROGRAM RAN BY                                  dpassero
 ***** **    ** ** **   PROGRAM PROCESS ID                                 18773
  **** **  *******  **  PROGRAM STOPPED IN  /scratch/snx3000/dpassero/Exercise-8
