 DBCSR| Multiplication driver                                                SMM
 DBCSR| Multrec recursion limit                                              512
 DBCSR| Multiplication stack size                                          30000
 DBCSR| Maximum elements for images                                    UNLIMITED
 DBCSR| Multiplicative factor virtual images                                   1
 DBCSR| Multiplication size stacks                                             3
 DBCSR| Number of 3D layers                                               SINGLE
 DBCSR| Use MPI memory allocation                                              T
 DBCSR| Use RMA algorithm                                                      F
 DBCSR| Use Communication thread                                               T
 DBCSR| Communication thread load                                             87
 DBCSR| ACC: Number of devices/node                                            1
 DBCSR| ACC: Number of priority stack-buffers                                 40
 DBCSR| ACC: Number of posterior stack-buffers                                80
 DBCSR| ACC: Number of priority streams                                        4
 DBCSR| ACC: Number of posterior streams                                       4
 DBCSR| ACC: Avoid driver after busy                                           F
 DBCSR| ACC: Process inhomogenous stacks                                       T
 DBCSR| ACC: Min. flop for processing                                          0
 DBCSR| ACC: Min. flop for sorting                                          4000
 DBCSR| ACC: Number of binning bins                                         4096
 DBCSR| ACC: Size of binning bins                                             16


  **** **** ******  **  PROGRAM STARTED AT               2019-04-11 19:08:46.344
 ***** ** ***  *** **   PROGRAM STARTED ON                              nid03508
 **    ****   ******    PROGRAM STARTED BY                              dpassero
 ***** **    ** ** **   PROGRAM PROCESS ID                                 28913
  **** **  *******  **  PROGRAM STARTED IN  /scratch/snx3000/dpassero/Exercise-8

 CP2K| version string:                                          CP2K version 6.1
 CP2K| source code revision number:                                    svn:18464
 CP2K| cp2kflags: omp libint fftw3 libxc elpa=201611 elpa_qr parallel mpi3 scala
 CP2K|            pack acc smm_dnn smm dbcsr_acc
 CP2K| is freely available from                            https://www.cp2k.org/
 CP2K| Program compiled at                         Tue Apr  2 14:18:36 CEST 2019
 CP2K| Program compiled on                                              daint101
 CP2K| Program compiled for                      CP2K-6.1-CrayGNU-18.08-cuda-9.1
 CP2K| Data directory path    /apps/daint/UES/jenkins/6.0.UP07/gpu/easybuild/sof
 CP2K| Input file name                                                optmet.inp

 GLOBAL| Force Environment number                                              1
 GLOBAL| Basis set file name                                      ./BASIS_MOLOPT
 GLOBAL| Potential file name                                    ./GTH_POTENTIALS
 GLOBAL| MM Potential file name                                     MM_POTENTIAL
 GLOBAL| Coordinate file name                                       ./optmet.xyz
 GLOBAL| Method name                                                        CP2K
 GLOBAL| Project name                                                        MET
 GLOBAL| Preferred FFT library                                             FFTW3
 GLOBAL| Preferred diagonalization lib.                                       SL
 GLOBAL| Run type                                                        GEO_OPT
 GLOBAL| All-to-all communication in single precision                          F
 GLOBAL| FFTs using library dependent lengths                                  T
 GLOBAL| Global print level                                                  LOW
 GLOBAL| Total number of message passing processes                            12
 GLOBAL| Number of threads for this process                                    1
 GLOBAL| This output is from process                                           0
 GLOBAL| CPU model name :  Intel(R) Xeon(R) CPU E5-2690 v3 @ 2.60GHz

 MEMORY| system memory details [Kb]
 MEMORY|                        rank 0           min           max       average
 MEMORY| MemTotal             65844884      65844884      65844884      65844884
 MEMORY| MemFree              60872920      60872920      60872920      60872920
 MEMORY| Buffers                 18416         18416         18416         18416
 MEMORY| Cached                1681288       1681288       1681288       1681288
 MEMORY| Slab                   188328        188328        188328        188328
 MEMORY| SReclaimable            23260         23260         23260         23260
 MEMORY| MemLikelyFree        62595884      62595884      62595884      62595884


 GENERATE|  Preliminary Number of Bonds generated:                             0
 GENERATE|  Achieved consistency in connectivity generation.

 *******************************************************************************
 *******************************************************************************
 **                                                                           **
 **     #####                         ##              ##                      **
 **    ##   ##            ##          ##              ##                      **
 **   ##     ##                       ##            ######                    **
 **   ##     ##  ##   ##  ##   #####  ##  ##   ####   ##    #####    #####    **
 **   ##     ##  ##   ##  ##  ##      ## ##   ##      ##   ##   ##  ##   ##   **
 **   ##  ## ##  ##   ##  ##  ##      ####     ###    ##   ######   ######    **
 **    ##  ###   ##   ##  ##  ##      ## ##      ##   ##   ##       ##        **
 **     #######   #####   ##   #####  ##  ##  ####    ##    #####   ##        **
 **           ##                                                    ##        **
 **                                                                           **
 **                                                ... make the atoms dance   **
 **                                                                           **
 **            Copyright (C) by CP2K developers group (2000 - 2018)           **
 **                                                                           **
 *******************************************************************************


 TOTAL NUMBERS AND MAXIMUM NUMBERS

  Total number of            - Atomic kinds:                                   3
                             - Atoms:                                          6
                             - Shell sets:                                     6
                             - Shells:                                         8
                             - Primitive Cartesian functions:                 42
                             - Cartesian basis functions:                     12
                             - Spherical basis functions:                     12

  Maximum angular momentum of- Orbital basis functions:                        1
                             - Local part of the GTH pseudopotential:          2
                             - Non-local part of the GTH pseudopotential:      0


 SCF PARAMETERS         Density guess:                                   RESTART
                        --------------------------------------------------------
                        max_scf:                                             100
                        max_scf_history:                                       0
                        max_diis:                                              4
                        --------------------------------------------------------
                        eps_scf:                                        1.00E-06
                        eps_scf_history:                                0.00E+00
                        eps_diis:                                       1.00E-01
                        eps_eigval:                                     1.00E-05
                        --------------------------------------------------------
                        level_shift [a.u.]:                                 0.00
                        --------------------------------------------------------
                        Mixing method:                           DIRECT_P_MIXING
                        --------------------------------------------------------
                        Outer loop SCF in use 
                        No variables optimised in outer loop
                        eps_scf                                         1.00E-06
                        max_scf                                               15
                        No outer loop optimization
                        step_size                                       5.00E-01

 BFGS| Use rational function optimization for step estimation:                NO
 BFGS| Use model Hessian for initial guess:                                  YES
 BFGS| Restart Hessian:                                                       NO
 BFGS| Trust radius:                                                       0.472

 *******************************************************************************
 ***                     STARTING GEOMETRY OPTIMIZATION                      ***
 ***                                   BFGS                                  ***
 *******************************************************************************

 Number of electrons:                                                         14
 Number of occupied orbitals:                                                  7
 Number of molecular orbitals:                                                 7

 Number of orbital functions:                                                 12
 Number of independent orbital functions:                                     12

 Extrapolation method: initial_guess

 *** WARNING in qs_initial_guess.F:263 :: User requested to restart the    ***
 *** wavefunction from the file named: MET-RESTART.wfn. This file does not ***
 *** exist. Please check the existence of the file or change properly the  ***
 *** value of the keyword WFN_RESTART_FILE_NAME. Calculation continues     ***
 *** using ATOMIC GUESS.                                                   ***



 SCF WAVEFUNCTION OPTIMIZATION

  Step     Update method      Time    Convergence         Total energy    Change
  ------------------------------------------------------------------------------
     1 P_Mix/Diag. 0.40E+00    0.8     1.19814446       -23.0588266866 -2.31E+01
     2 P_Mix/Diag. 0.40E+00    0.1     0.72512543       -23.4464559710 -3.88E-01
     3 P_Mix/Diag. 0.40E+00    0.1     0.44642153       -23.6662351994 -2.20E-01
     4 P_Mix/Diag. 0.40E+00    0.1     0.27233331       -23.7958110150 -1.30E-01
     5 P_Mix/Diag. 0.40E+00    0.1     0.16453674       -23.8729082007 -7.71E-02
     6 P_Mix/Diag. 0.40E+00    0.1     0.09895461       -23.9189636339 -4.61E-02
     7 DIIS/Diag.  0.13E-02    0.1     0.05933413       -23.9465311012 -2.76E-02
     8 DIIS/Diag.  0.81E-04    0.1     0.00017955       -23.9878005903 -4.13E-02
     9 DIIS/Diag.  0.38E-03    0.1     0.00022936       -23.9878004626  1.28E-07
    10 DIIS/Diag.  0.22E-04    0.1     0.00001156       -23.9878005971 -1.34E-07
    11 DIIS/Diag.  0.32E-05    0.1     0.00000348       -23.9878005972 -1.38E-10
    12 DIIS/Diag.  0.95E-06    0.1     0.00000055       -23.9878005972 -5.54E-12

  *** SCF run converged in    12 steps ***


  Electronic density on regular grids:        -13.9999999131        0.0000000869
  Core density on regular grids:               14.0000000000       -0.0000000000
  Total charge density on r-space grids:        0.0000000869
  Total charge density g-space grids:           0.0000000869

  Overlap energy of the core charge distribution:               0.00000202767440
  Self energy of the core charge distribution:                -60.50311084124164
  Core Hamiltonian energy:                                     18.63475815948878
  Hartree energy:                                              24.67961937269600
  Exchange-correlation energy:                                 -6.79906931586306

  Total energy:                                               -23.98780059724553

  outer SCF iter =    1 RMS gradient =   0.00E+00 energy =        -23.9878005972
  outer SCF loop converged in   1 iterations or   12 steps


 ELECTRIC/MAGNETIC MOMENTS
  Reference Point [Bohr]           0.00000000    0.00000000    0.00000000
  Charges
    Electronic=    -14.00000000    Core=    14.00000000    Total=      0.00000000
  Dipoles are based on the traditional operator.
  Dipole moment [Debye]
    X=    1.66767103 Y=    1.94866550 Z=   -0.00015052     Total=      2.56484384

 ENERGY| Total FORCE_EVAL ( QS ) energy (a.u.):              -23.987800597245723


 --------  Informations at step =     0 ------------
  Optimization Method        =                 BFGS
  Total Energy               =       -23.9878005972
  Used time                  =                2.199
 ---------------------------------------------------

 --------------------------
 OPTIMIZATION STEP:      1
 --------------------------

 Number of electrons:                                                         14
 Number of occupied orbitals:                                                  7
 Number of molecular orbitals:                                                 7

 Number of orbital functions:                                                 12
 Number of independent orbital functions:                                     12

 Extrapolation method: ASPC


 SCF WAVEFUNCTION OPTIMIZATION

  Step     Update method      Time    Convergence         Total energy    Change
  ------------------------------------------------------------------------------
     1 P_Mix/Diag. 0.40E+00    0.1     0.00010030       -23.9878006204 -2.40E+01
     2 P_Mix/Diag. 0.40E+00    0.1     0.00005678       -23.9878006230 -2.58E-09
     3 DIIS/Diag.  0.97E-06    0.1     0.00003308       -23.9878006245 -1.52E-09
     4 DIIS/Diag.  0.13E-05    0.1     0.00000074       -23.9878006268 -2.25E-09

  *** SCF run converged in     4 steps ***


  Electronic density on regular grids:        -13.9999999131        0.0000000869
  Core density on regular grids:               14.0000000000       -0.0000000000
  Total charge density on r-space grids:        0.0000000869
  Total charge density g-space grids:           0.0000000869

  Overlap energy of the core charge distribution:               0.00000202750308
  Self energy of the core charge distribution:                -60.50311084124164
  Core Hamiltonian energy:                                     18.63487263702385
  Hartree energy:                                              24.67952887196099
  Exchange-correlation energy:                                 -6.79909332203260

  Total energy:                                               -23.98780062678632

  outer SCF iter =    1 RMS gradient =   0.00E+00 energy =        -23.9878006268
  outer SCF loop converged in   1 iterations or    4 steps


 ELECTRIC/MAGNETIC MOMENTS
  Reference Point [Bohr]           0.00000000    0.00000000    0.00000000
  Charges
    Electronic=    -14.00000000    Core=    14.00000000    Total=     -0.00000000
  Dipoles are based on the traditional operator.
  Dipole moment [Debye]
    X=    1.66761194 Y=    1.94826720 Z=   -0.00011068     Total=      2.56450281

 ENERGY| Total FORCE_EVAL ( QS ) energy (a.u.):              -23.987800626787077


 --------  Informations at step =     1 ------------
  Optimization Method        =                 BFGS
  Total Energy               =       -23.9878006268
  Real energy change         =        -0.0000000295
  Predicted change in energy =        -0.0000000250
  Scaling factor             =         0.0000000000
  Step size                  =         0.0004330874
  Trust radius               =         0.4724315332
  Decrease in energy         =                  YES
  Used time                  =                0.599

  Convergence check :
  Max. step size             =         0.0004330874
  Conv. limit for step size  =         0.0030000000
  Convergence in step size   =                  YES
  RMS step size              =         0.0001594474
  Conv. limit for RMS step   =         0.0015000000
  Convergence in RMS step    =                  YES
  Max. gradient              =         0.0000604699
  Conv. limit for gradients  =         0.0000500000
  Conv. for gradients        =                   NO
  RMS gradient               =         0.0000214163
  Conv. limit for RMS grad.  =         0.0003000000
  Conv. in RMS gradients     =                  YES
 ---------------------------------------------------

 --------------------------
 OPTIMIZATION STEP:      2
 --------------------------

 Number of electrons:                                                         14
 Number of occupied orbitals:                                                  7
 Number of molecular orbitals:                                                 7

 Number of orbital functions:                                                 12
 Number of independent orbital functions:                                     12

 Extrapolation method: ASPC


 SCF WAVEFUNCTION OPTIMIZATION

  Step     Update method      Time    Convergence         Total energy    Change
  ------------------------------------------------------------------------------
     1 P_Mix/Diag. 0.40E+00    0.1     0.00006752       -23.9878006856 -2.40E+01
     2 P_Mix/Diag. 0.40E+00    0.1     0.00003581       -23.9878006871 -1.48E-09
     3 DIIS/Diag.  0.11E-05    0.1     0.00002060       -23.9878006879 -8.62E-10
     4 DIIS/Diag.  0.11E-05    0.1     0.00000086       -23.9878006892 -1.27E-09

  *** SCF run converged in     4 steps ***


  Electronic density on regular grids:        -13.9999999130        0.0000000870
  Core density on regular grids:               14.0000000000       -0.0000000000
  Total charge density on r-space grids:        0.0000000870
  Total charge density g-space grids:           0.0000000870

  Overlap energy of the core charge distribution:               0.00000202702317
  Self energy of the core charge distribution:                -60.50311084124164
  Core Hamiltonian energy:                                     18.63497483523027
  Hartree energy:                                              24.67945342206687
  Exchange-correlation energy:                                 -6.79912013230000

  Total energy:                                               -23.98780068922134

  outer SCF iter =    1 RMS gradient =   0.00E+00 energy =        -23.9878006892
  outer SCF loop converged in   1 iterations or    4 steps


 ELECTRIC/MAGNETIC MOMENTS
  Reference Point [Bohr]           0.00000000    0.00000000    0.00000000
  Charges
    Electronic=    -14.00000000    Core=    14.00000000    Total=     -0.00000000
  Dipoles are based on the traditional operator.
  Dipole moment [Debye]
    X=    1.66759329 Y=    1.94779660 Z=   -0.00001678     Total=      2.56413318

 ENERGY| Total FORCE_EVAL ( QS ) energy (a.u.):              -23.987800689222951


 --------  Informations at step =     2 ------------
  Optimization Method        =                 BFGS
  Total Energy               =       -23.9878006892
  Real energy change         =        -0.0000000624
  Predicted change in energy =        -0.0000000486
  Scaling factor             =         0.0000000000
  Step size                  =         0.0009303391
  Trust radius               =         0.4724315332
  Decrease in energy         =                  YES
  Used time                  =                0.614

  Convergence check :
  Max. step size             =         0.0009303391
  Conv. limit for step size  =         0.0030000000
  Convergence in step size   =                  YES
  RMS step size              =         0.0004071940
  Conv. limit for RMS step   =         0.0015000000
  Convergence in RMS step    =                  YES
  Max. gradient              =         0.0000307894
  Conv. limit for gradients  =         0.0000500000
  Conv. in gradients         =                  YES
  RMS gradient               =         0.0000157001
  Conv. limit for RMS grad.  =         0.0003000000
  Conv. in RMS gradients     =                  YES
 ---------------------------------------------------

 *******************************************************************************
 ***                    GEOMETRY OPTIMIZATION COMPLETED                      ***
 *******************************************************************************

                    Reevaluating energy at the minimum

 Number of electrons:                                                         14
 Number of occupied orbitals:                                                  7
 Number of molecular orbitals:                                                 7

 Number of orbital functions:                                                 12
 Number of independent orbital functions:                                     12

 Extrapolation method: ASPC


 SCF WAVEFUNCTION OPTIMIZATION

  Step     Update method      Time    Convergence         Total energy    Change
  ------------------------------------------------------------------------------
     1 P_Mix/Diag. 0.40E+00    0.1     0.00013006       -23.9878006771 -2.40E+01
     2 P_Mix/Diag. 0.40E+00    0.1     0.00007585       -23.9878006821 -4.90E-09
     3 DIIS/Diag.  0.14E-05    0.1     0.00004459       -23.9878006849 -2.89E-09
     4 DIIS/Diag.  0.13E-05    0.1     0.00000149       -23.9878006892 -4.28E-09
     5 DIIS/Diag.  0.21E-06    0.1     0.00000031       -23.9878006892 -3.05E-12

  *** SCF run converged in     5 steps ***


  Electronic density on regular grids:        -13.9999999130        0.0000000870
  Core density on regular grids:               14.0000000000       -0.0000000000
  Total charge density on r-space grids:        0.0000000870
  Total charge density g-space grids:           0.0000000870

  Overlap energy of the core charge distribution:               0.00000202702317
  Self energy of the core charge distribution:                -60.50311084124164
  Core Hamiltonian energy:                                     18.63497522174640
  Hartree energy:                                              24.67945307374792
  Exchange-correlation energy:                                 -6.79912017049889

  Total energy:                                               -23.98780068922305

  outer SCF iter =    1 RMS gradient =   0.00E+00 energy =        -23.9878006892
  outer SCF loop converged in   1 iterations or    5 steps


 ELECTRIC/MAGNETIC MOMENTS
  Reference Point [Bohr]           0.00000000    0.00000000    0.00000000
  Charges
    Electronic=    -14.00000000    Core=    14.00000000    Total=      0.00000000
  Dipoles are based on the traditional operator.
  Dipole moment [Debye]
    X=    1.66759253 Y=    1.94779926 Z=   -0.00001676     Total=      2.56413471

 ENERGY| Total FORCE_EVAL ( QS ) energy (a.u.):              -23.987800689223047


 -------------------------------------------------------------------------------
 -                                                                             -
 -                                DBCSR STATISTICS                             -
 -                                                                             -
 -------------------------------------------------------------------------------
 COUNTER                                    TOTAL       BLAS       SMM       ACC
 flops     1 x     7 x     1                  672       0.0%    100.0%      0.0%
 flops     1 x     7 x     4                 1344       0.0%    100.0%      0.0%
 flops     4 x     7 x     1                 1344       0.0%    100.0%      0.0%
 flops     4 x     7 x     4                 2688       0.0%      0.0%    100.0%
 flops     1 x     1 x     7                 4340       0.0%    100.0%      0.0%
 flops     1 x     4 x     7                 6944       0.0%    100.0%      0.0%
 flops     4 x     1 x     7                 6944       0.0%    100.0%      0.0%
 flops     4 x     4 x     7                20832       0.0%      0.0%    100.0%
 flops inhomo. stacks                           0       0.0%      0.0%      0.0%
 flops total                        45.108000E+03       0.0%     47.9%     52.1%
 flops max/rank                     18.872000E+03       0.0%     26.4%     73.6%
 matmuls inhomo. stacks                         0       0.0%      0.0%      0.0%
 matmuls total                                759       0.0%     86.2%     13.8%
 number of processed stacks                   550       0.0%     87.6%     12.4%
 average stack size                                     0.0       1.4       1.5
 marketing flops                    68.544000E+03
 -------------------------------------------------------------------------------
 # multiplications                             34
 max memory usage/rank             183.361536E+06
 # max total images/rank                        3
 # max 3D layers                                1
 # MPI messages exchanged                    8160
 MPI messages size (bytes):
  total size                       235.680000E+03
  min size                           0.000000E+00
  max size                         504.000000E+00
  average size                      28.882353E+00
 MPI breakdown and total messages size (bytes):
             size <=      128                7480                    46720
       128 < size <=     8192                 680                   188960
      8192 < size <=    32768                   0                        0
     32768 < size <=   131072                   0                        0
    131072 < size <=  4194304                   0                        0
   4194304 < size <= 16777216                   0                        0
  16777216 < size                               0                        0
 -------------------------------------------------------------------------------

 *** WARNING in dbcsr/mm/dbcsr_mm.F:268 :: Using a non-square number of ***
 *** MPI ranks might lead to poor performance.                          ***
 *** Used ranks: 12                                                     ***
 *** Suggested: 9 25                                                    ***

 -------------------------------------------------------------------------------

 MEMORY| Estimated peak process memory [MiB]                                 175

 -------------------------------------------------------------------------------
 -                                                                             -
 -                         MESSAGE PASSING PERFORMANCE                         -
 -                                                                             -
 -------------------------------------------------------------------------------

 ROUTINE             CALLS      AVE VOLUME [Bytes]
 MP_Group               60
 MP_Bcast              158                3307546.
 MP_Allreduce          814                    346.
 MP_Sync                33
 MP_Alltoall          1564                 589826.
 MP_ISendRecv         3212                  95447.
 MP_Wait              5388
 MP_comm_split          28
 MP_ISend             1620                     85.
 MP_IRecv             1496                     74.
 MP_Recv                22                    301.
 MP_Memory            1432
 -------------------------------------------------------------------------------


 -------------------------------------------------------------------------------
 -                                                                             -
 -                           R E F E R E N C E S                               -
 -                                                                             -
 -------------------------------------------------------------------------------
 
 CP2K version 6.1, the CP2K developers group (2018).
 CP2K is freely available from https://www.cp2k.org/ .

 Schuett, Ole; Messmer, Peter; Hutter, Juerg; VandeVondele, Joost. 
 Electronic Structure Calculations on Graphics Processing Units, John Wiley & Sons, Ltd, 173-190 (2016). 
 GPU-Accelerated Sparse Matrix-Matrix Multiplication for Linear Scaling Density Functional Theory.
 http://dx.doi.org/10.1002/9781118670712.ch8


 Borstnik, U; VandeVondele, J; Weber, V; Hutter, J. 
 PARALLEL COMPUTING, 40 (5-6), 47-58 (2014). 
 Sparse matrix multiplication: The distributed block-compressed sparse
 row library.
 http://dx.doi.org/10.1016/j.parco.2014.03.012


 Hutter, J; Iannuzzi, M; Schiffmann, F; VandeVondele, J. 
 WILEY INTERDISCIPLINARY REVIEWS-COMPUTATIONAL MOLECULAR SCIENCE, 4 (1), 15-25 (2014). 
 CP2K: atomistic simulations of condensed matter systems.
 http://dx.doi.org/10.1002/wcms.1159


 VandeVondele, J; Hutter, J. 
 JOURNAL OF CHEMICAL PHYSICS, 127 (11), 114105 (2007). 
 Gaussian basis sets for accurate calculations on molecular systems in
 gas and condensed phases.
 http://dx.doi.org/10.1063/1.2770708


 Krack, M. 
 THEORETICAL CHEMISTRY ACCOUNTS, 114 (1-3), 145-152 (2005). 
 Pseudopotentials for H to Kr optimized for gradient-corrected
 exchange-correlation functionals.
 http://dx.doi.org/10.1007/s00214-005-0655-y


 VandeVondele, J; Krack, M; Mohamed, F; Parrinello, M; Chassaing, T;
 Hutter, J. COMPUTER PHYSICS COMMUNICATIONS, 167 (2), 103-128 (2005). 
 QUICKSTEP: Fast and accurate density functional calculations using a
 mixed Gaussian and plane waves approach.
 http://dx.doi.org/10.1016/j.cpc.2004.12.014


 Frigo, M; Johnson, SG. 
 PROCEEDINGS OF THE IEEE, 93 (2), 216-231 (2005). 
 The design and implementation of FFTW3.
 http://dx.doi.org/10.1109/JPROC.2004.840301


 Kolafa, J. 
 JOURNAL OF COMPUTATIONAL CHEMISTRY, 25 (3), 335-342 (2004). 
 Time-reversible always stable predictor-corrector method for molecular dynamics of polarizable molecules.
 http://dx.doi.org/10.1002/jcc.10385


 Martyna, GJ; Tuckerman, ME. 
 JOURNAL OF CHEMICAL PHYSICS, 110 (6), 2810-2821 (1999). 
 A reciprocal space based method for treating long range interactions in
 ab initio and force-field-based calculations in clusters.
 http://dx.doi.org/10.1063/1.477923


 Hartwigsen, C; Goedecker, S; Hutter, J. 
 PHYSICAL REVIEW B, 58 (7), 3641-3662 (1998). 
 Relativistic separable dual-space Gaussian pseudopotentials from H to Rn.
 http://dx.doi.org/10.1103/PhysRevB.58.3641


 Lippert, G; Hutter, J; Parrinello, M. 
 MOLECULAR PHYSICS, 92 (3), 477-487 (1997). 
 A hybrid Gaussian and plane wave density functional scheme.
 http://dx.doi.org/10.1080/002689797170220


 Perdew, JP; Burke, K; Ernzerhof, M. 
 PHYSICAL REVIEW LETTERS, 77 (18), 3865-3868 (1996). 
 Generalized gradient approximation made simple.
 http://dx.doi.org/10.1103/PhysRevLett.77.3865


 Goedecker, S; Teter, M; Hutter, J. 
 PHYSICAL REVIEW B, 54 (3), 1703-1710 (1996). 
 Separable dual-space Gaussian pseudopotentials.
 http://dx.doi.org/10.1103/PhysRevB.54.1703


 -------------------------------------------------------------------------------
 -                                                                             -
 -                                T I M I N G                                  -
 -                                                                             -
 -------------------------------------------------------------------------------
 SUBROUTINE                       CALLS  ASD         SELF TIME        TOTAL TIME
                                MAXIMUM       AVERAGE  MAXIMUM  AVERAGE  MAXIMUM
 CP2K                                 1  1.0    0.105    0.107    4.576    4.577
 cp_geo_opt                           1  2.0    0.000    0.000    4.044    4.044
 geoopt_bfgs                          1  3.0    0.001    0.001    4.044    4.044
 cp_eval_at                           4  4.0    0.000    0.000    4.023    4.024
 qs_energies                          4  5.8    0.000    0.000    3.750    3.752
 scf_env_do_scf                       4  6.8    0.000    0.000    3.514    3.518
 scf_env_do_scf_inner_loop           25  7.8    0.001    0.003    3.514    3.517
 qs_forces                            3  5.0    0.000    0.000    3.397    3.397
 rebuild_ks_matrix                   28  9.5    0.000    0.000    1.818    2.200
 qs_ks_build_kohn_sham_matrix        28 10.5    0.003    0.003    1.818    2.200
 qs_ks_update_qs_env                 25  8.8    0.000    0.000    1.613    1.946
 qs_scf_new_mos                      25  8.8    0.000    0.000    1.105    1.208
 qs_vxc_create                       28 11.5    0.001    0.001    1.172    1.177
 xc_vxc_pw_create                    28 12.5    0.018    0.020    1.172    1.177
 pw_transfer                        599 13.2    0.023    0.028    0.940    0.981
 fft_wrap_pw1pw2                    543 14.3    0.003    0.004    0.905    0.947
 qs_rho_update_rho                   29  8.9    0.000    0.000    0.899    0.900
 calculate_rho_elec                  29  9.9    0.199    0.539    0.898    0.900
 fft_wrap_pw1pw2_180                314 15.3    0.103    0.116    0.845    0.886
 sum_up_and_integrate                28 11.5    0.004    0.004    0.468    0.849
 integrate_v_rspace                  28 12.5    0.211    0.593    0.464    0.845
 xc_rho_set_and_dset_create          28 13.5    0.012    0.013    0.780    0.806
 dbcsr_multiply_generic              34 11.6    0.001    0.002    0.758    0.764
 cp_dbcsr_plus_fm_fm_t_native        31 10.6    0.000    0.000    0.753    0.761
 density_rs2pw                       29 10.9    0.001    0.001    0.645    0.754
 calculate_dm_sparse                 28  9.8    0.000    0.000    0.743    0.751
 multiply_cannon                     34 12.6    0.011    0.012    0.726    0.732
 rs_pw_transfer                     292 13.1    0.002    0.002    0.618    0.728
 fft3d_ps                           543 16.3    0.431    0.453    0.639    0.697
 dbcsr_mm_multrec_init               34 13.6    0.000    0.000    0.618    0.623
 dbcsr_mm_csr_init                   34 14.6    0.000    0.000    0.618    0.623
 dbcsr_mm_sched_init                 34 15.6    0.000    0.000    0.618    0.622
 dbcsr_mm_accdrv_init                34 16.6    0.618    0.622    0.618    0.622
 mp_waitall_1                      5388 15.1    0.456    0.563    0.456    0.563
 rs_pw_transfer_RS2PW_180            33 12.6    0.060    0.065    0.441    0.552
 xc_functional_eval                  28 14.5    0.000    0.000    0.474    0.499
 pbe_lda_eval                        28 15.5    0.474    0.499    0.474    0.499
 copy_dbcsr_to_fm                    53 10.1    0.001    0.001    0.352    0.457
 dbcsr_desymmetrize_deep             53 11.1    0.001    0.001    0.342    0.447
 mp_alltoall_i22                    143 12.4    0.340    0.445    0.340    0.445
 dbcsr_finalize_lib                   1  2.0    0.290    0.295    0.307    0.308
 qs_ks_update_qs_env_forces           3  6.0    0.000    0.000    0.207    0.257
 potential_pw2rs                     28 13.5    0.001    0.001    0.249    0.250
 mp_alltoall_z22v                   543 18.3    0.122    0.215    0.122    0.215
 yz_to_x                            233 16.8    0.033    0.037    0.099    0.171
 init_scf_run                         4  6.8    0.000    0.000    0.165    0.165
 scf_env_initial_rho_setup            4  7.8    0.000    0.000    0.161    0.161
 rs_pw_transfer_PW2RS_180            31 15.1    0.092    0.095    0.126    0.131
 wfi_extrapolate                      4  8.8    0.000    0.000    0.122    0.122
 x_to_yz                            253 17.8    0.044    0.046    0.099    0.112
 -------------------------------------------------------------------------------

 The number of warnings for this run is : 2
 
 -------------------------------------------------------------------------------
  **** **** ******  **  PROGRAM ENDED AT                 2019-04-11 19:08:52.126
 ***** ** ***  *** **   PROGRAM RAN ON                                  nid03508
 **    ****   ******    PROGRAM RAN BY                                  dpassero
 ***** **    ** ** **   PROGRAM PROCESS ID                                 28913
  **** **  *******  **  PROGRAM STOPPED IN  /scratch/snx3000/dpassero/Exercise-8
