      38
 i =      10, E =       -0.0604861247
 Ar         4.8522400000       -2.6651900000        3.6435000000
 Ar        -5.2381700000        2.0593400000        2.4063200000
 Ar        -3.5115800000       -0.8929160000       -3.2081900000
 Ar         3.0473900000       -4.6175800000       -3.3040000000
 Ar         0.4275980000        1.7788100000        5.7414100000
 Ar        -2.1344500000       -4.9187600000        1.9806900000
 Ar        -4.9204700000        2.6864400000       -2.5683300000
 Ar         2.4913200000       -1.1986200000       -4.7849100000
 Ar        -1.6763300000        3.3359600000        2.9660900000
 Ar         4.5677100000        3.1612800000        0.7591810000
 Ar        -0.8921590000       -0.9094910000       -6.3042100000
 Ar        -2.4657200000        2.2230900000       -5.3141100000
 Ar        -3.7595300000        4.8667500000        0.2771660000
 Ar         2.0019100000        4.1197300000        3.2986600000
 Ar         5.5745100000       -1.9713600000       -2.7891800000
 Ar         5.5130800000       -0.5185000000        0.5689320000
 Ar         2.4202700000        4.7953400000       -1.9891900000
 Ar         1.3695100000        2.6836200000       -5.0993100000
 Ar        -0.0556516000        5.7908700000        0.6688920000
 Ar        -1.2001100000        3.9051900000       -2.3106800000
 Ar         3.6843200000        1.3427300000       -2.3678900000
 Ar        -3.1868600000        0.6780850000        5.2747900000
 Ar        -0.4627220000       -3.3119700000       -3.5290300000
 Ar        -6.0534800000       -0.2571640000       -0.5130560000
 Ar         1.8257300000       -1.6789100000        5.7934000000
 Ar         4.4252700000       -4.2914700000        0.2526920000
 Ar        -3.9925800000       -1.5592600000        2.2988300000
 Ar        -4.5038100000       -3.7380800000       -0.8546470000
 Ar         0.6920020000       -5.2705700000       -0.5321400000
 Ar         1.3383500000       -3.1950000000        2.4254800000
 Ar        -1.6499800000       -2.8216800000        5.0338400000
 Ar         0.9905660000        2.0984400000        0.2565250000
 Ar         2.9518700000        0.4903080000        2.9706100000
 Ar        -0.1613890000        0.3866230000       -2.7618000000
 Ar         2.2163800000       -1.6225600000       -0.8502100000
 Ar        -2.6217000000        1.2670300000       -0.0643446000
 Ar        -0.5991330000       -0.1340200000        2.7440500000
 Ar        -1.3041800000       -2.0965400000       -0.2158350000
      38
 i =      10, E =       -0.0592664081
 Ar         4.8696667402       -2.7381304311        3.7033260696
 Ar        -5.1787949444        1.9833737351        2.5337968302
 Ar        -3.4790462420       -0.8438289463       -3.2124336263
 Ar         3.0953497037       -4.7055323797       -3.3116904453
 Ar         0.5009753677        1.7975640167        5.7355142703
 Ar        -2.1089932966       -4.8986762647        1.9757372528
 Ar        -4.8666390090        2.7255764835       -2.6026340169
 Ar         2.5425275434       -1.2571704002       -4.8080778871
 Ar        -1.6388409716        3.4022309713        2.9074221777
 Ar         4.6625115179        3.0563335713        0.7431611970
 Ar        -0.8373050587       -0.8270073717       -6.3055242979
 Ar        -2.4077659707        2.3112830453       -5.3203117534
 Ar        -5.4588116411        5.1141167530        0.1776159122
 Ar         2.1160981898        4.0712579339        3.2857458659
 Ar         5.6231703026       -2.0536892245       -2.8050864228
 Ar         5.5233575732       -0.6357405780        0.5746483192
 Ar         2.5203914042        4.7300633411       -2.0192274466
 Ar         1.4324893861        2.6616716606       -5.1428106974
 Ar         0.1251664363        5.8210908331        0.6668619530
 Ar        -1.1620711647        3.9521747452       -2.2634893003
 Ar         3.7478002254        1.2727129603       -2.3971802509
 Ar        -3.0869308716        0.6886082456        5.3815310306
 Ar        -0.4035474038       -3.2846826981       -3.5443956172
 Ar        -6.0213859625       -0.1770758976       -0.4906113404
 Ar         1.8329615296       -1.6970671897        5.8315886033
 Ar         4.4395640599       -4.3445271565        0.2811201805
 Ar        -3.9688531664       -1.5812081565        2.3215696187
 Ar        -4.5196502458       -3.6783407819       -0.8463384355
 Ar         0.7102258959       -5.2571021358       -0.5335736900
 Ar         1.3573890421       -3.1583806748        2.4198884903
 Ar        -1.6361581918       -2.8175806314        5.0510703291
 Ar         1.0630352420        2.0622945621        0.2522434216
 Ar         2.9803786964        0.4205387885        2.9786786764
 Ar        -0.1139879024        0.4140802556       -2.7740774538
 Ar         2.2422089538       -1.6935887917       -0.9171975051
 Ar        -2.6058382689        1.3270701976       -0.0560229449
 Ar        -0.6010809423       -0.1038165727        2.7565447284
 Ar        -1.2895451558       -2.0589008169       -0.2273863948
      38
 i =      10, E =       -0.0589444073
 Ar         4.8681327700       -2.7824099726        3.7056346646
 Ar        -4.9505970350        2.3286537840        2.3286097196
 Ar        -3.4619397668       -0.7976710776       -3.1993120504
 Ar         3.0872728021       -4.7258329068       -3.3085325933
 Ar         0.5504959365        1.7740576949        5.7439460167
 Ar        -2.1623657327       -4.8899779343        1.9903325181
 Ar        -4.8006716786        2.9034454136       -2.4313125280
 Ar         2.5731381859       -1.2811481995       -4.8188203219
 Ar        -1.4283366027        3.4020382576        2.9141151931
 Ar         4.7397861364        3.0216680772        0.7372630345
 Ar        -0.8138185810       -0.7936872502       -6.3099339386
 Ar        -2.4081052187        2.3266212898       -5.2569320012
 Ar        -7.0280788876        4.5925383448        0.2280781104
 Ar         2.2497252496        4.0684986275        3.3100763226
 Ar         5.6331887638       -2.0949942455       -2.7938162934
 Ar         5.5538458478       -0.6777512178        0.5844814468
 Ar         2.6042120092        4.7193236590       -2.0149806460
 Ar         1.4723752574        2.6703096385       -5.1398778319
 Ar         0.2400368983        5.8351940696        0.6758933999
 Ar        -1.0596957272        3.9552369690       -2.2514040785
 Ar         3.7876384555        1.2443087988       -2.4011821670
 Ar        -3.1019392185        0.7964617001        5.2533396178
 Ar        -0.3944724625       -3.2841430317       -3.5613192169
 Ar        -6.0067043124       -0.0443558600       -0.4704098099
 Ar         1.8323060398       -1.7310879070        5.8219624586
 Ar         4.4329543249       -4.3826615825        0.2829968015
 Ar        -3.9583170768       -1.4477454260        2.2958208402
 Ar        -4.5598275559       -3.5970450536       -0.8284325482
 Ar         0.6984698743       -5.2963921692       -0.5370254943
 Ar         1.3579915678       -3.2155951478        2.4254402343
 Ar        -1.6698107785       -2.7779639886        5.0425665852
 Ar         1.1498951896        2.0546846939        0.2551068735
 Ar         3.0316465620        0.4036744660        2.9955798637
 Ar        -0.0536927609        0.3954415767       -2.7850734061
 Ar         2.2624931158       -1.7065491780       -0.8948717319
 Ar        -2.4680811895        1.2793456713       -0.1046978337
 Ar        -0.5348863490       -0.1300091968        2.7433552284
 Ar        -1.2642426526       -2.1144863871       -0.2266690385
      38
 i =      10, E =       -0.0584393043
 Ar         4.8772086160       -2.8300802528        3.7324934147
 Ar        -4.8732410268        3.0874898135        1.7640212517
 Ar        -3.4471847924       -0.7590343653       -3.1847002394
 Ar         3.1206892416       -4.7827523578       -3.3125619170
 Ar         0.6046286240        1.7573408021        5.7538488639
 Ar        -2.1784699560       -4.8963669759        2.0010616974
 Ar        -4.7470119032        3.0246248497       -2.3057493730
 Ar         2.6077793527       -1.3151286568       -4.8323287017
 Ar        -1.3308490708        3.3971398791        2.9180797400
 Ar         4.8096646214        2.9639507966        0.7281522075
 Ar        -0.7821979193       -0.7324157140       -6.3163115465
 Ar        -2.4061637748        2.3661202193       -5.2043356332
 Ar        -8.3100436117        3.9317592698        0.5525410544
 Ar         2.3542332524        4.0431304455        3.3233717582
 Ar         5.6561268765       -2.1409046031       -2.7967691892
 Ar         5.5639617356       -0.7402627380        0.5888963714
 Ar         2.6753688678        4.6919981584       -2.0128116775
 Ar         1.5080435969        2.6715181869       -5.1495735382
 Ar         0.3439447397        5.8309841842        0.6985976464
 Ar        -0.9954989883        3.9557643565       -2.2094144950
 Ar         3.8229751822        1.2066870933       -2.4132641328
 Ar        -3.1059847694        0.8896124091        5.1611510476
 Ar        -0.3502255615       -3.2684174188       -3.5755377160
 Ar        -5.9971375887        0.0759074406       -0.4144261995
 Ar         1.8343941008       -1.7640218324        5.8268921235
 Ar         4.4423513493       -4.4145411347        0.2933223901
 Ar        -3.9350973162       -1.4075352566        2.2854364756
 Ar        -4.5954946626       -3.5242158700       -0.8149755407
 Ar         0.7141761540       -5.3184709955       -0.5444032271
 Ar         1.3754597621       -3.2430656029        2.4226262121
 Ar        -1.6856046204       -2.7556809114        5.0452965049
 Ar         1.2133000591        2.0343089256        0.2622601454
 Ar         3.0751440414        0.3717276467        3.0128981935
 Ar        -0.0123891177        0.3964312843       -2.7906739823
 Ar         2.2794157869       -1.7432123127       -0.9159799214
 Ar        -2.3975142467        1.2406304449       -0.0959130250
 Ar        -0.4857881692       -0.1493984611        2.7464151858
 Ar        -1.2429474648       -2.1516257461       -0.2276368286
      38
 i =      10, E =       -0.0582862015
 Ar         4.8024207936       -2.8048314404        3.5921828997
 Ar        -4.3012473188        4.0059927840        1.0818858359
 Ar        -3.4458341928       -0.7638658026       -3.2049648421
 Ar         2.8680507609       -4.5299440948       -3.2770201623
 Ar         0.6243957035        1.7416246733        5.7708239482
 Ar        -2.2849282260       -4.9398474867        1.9746068620
 Ar        -4.7133927937        2.8873442221       -2.5011928879
 Ar         2.6402593009       -1.1632278888       -4.8727556513
 Ar        -1.2943950381        3.3064979135        2.9939090914
 Ar         4.7763956441        3.0911074666        0.7710582519
 Ar        -0.7954145850       -0.9050745574       -6.2811548304
 Ar        -2.2828575660        2.2808790426       -5.2749532511
 Ar        -7.9040911140        3.3354623784        1.0317980478
 Ar         2.3028185070        4.1355646626        3.3476418445
 Ar         5.5795959607       -2.1053251526       -2.7069131417
 Ar         5.6756902497       -0.5972585991        0.6262856651
 Ar         2.6245005233        4.7684162931       -1.9549180398
 Ar         1.5363787645        2.7047142242       -5.0515203960
 Ar         0.1716877706        5.8193360193        0.7134504064
 Ar        -1.0344751736        3.8918517648       -2.2100063839
 Ar         3.8276294548        1.2754424888       -2.3403469987
 Ar        -3.0625319104        0.7852015922        5.1808795250
 Ar        -0.6676943355       -3.4248478438       -3.5843402683
 Ar        -5.9911580544        0.0694785506       -0.4380150431
 Ar         1.8202781891       -1.7669932041        5.7467786227
 Ar         4.3301135479       -4.4610048252        0.2370992093
 Ar        -3.9198774790       -1.4503452465        2.2562640864
 Ar        -4.5704532355       -3.5430081660       -0.8795749319
 Ar         0.5781303765       -5.4408508891       -0.5417897074
 Ar         1.2731335179       -3.4218350085        2.4561957582
 Ar        -1.6974839946       -2.8203811119        5.0171717969
 Ar         1.1785828922        2.0886691147        0.2821627622
 Ar         3.1026288884        0.4689930842        3.0116741819
 Ar         0.0098346429        0.3151143868       -2.7643898103
 Ar         2.3025474831       -1.5685764168       -0.6287547989
 Ar        -2.4103867998        1.1672432203       -0.0851780379
 Ar        -0.4265152333       -0.2211088860        2.7319739165
 Ar        -1.2223145210       -2.2106122617       -0.2260581284
      38
 i =      10, E =       -0.0589987096
 Ar         4.7139115011       -2.7681442367        3.4219876510
 Ar        -3.8289952972        4.5340448754        0.5431396543
 Ar        -3.4056515666       -0.7621745054       -3.2122945450
 Ar         2.5285909610       -4.1738511311       -3.2147087614
 Ar         0.6023482321        1.7462397900        5.7440223354
 Ar        -2.3805180786       -4.9597734076        1.9359812153
 Ar        -4.6995843929        2.7829639847       -2.6382110540
 Ar         2.7713540928       -0.9318912162       -4.9946808606
 Ar        -1.4087058297        3.2443440093        2.9749110514
 Ar         4.7385582485        3.2226102038        0.8189328440
 Ar        -0.7622742933       -1.1184582504       -6.1577663847
 Ar        -2.1656197920        2.1771368163       -5.3296108462
 Ar        -7.0520352385        2.8929241453        1.5622341977
 Ar         2.1882505814        4.2141739089        3.3577465815
 Ar         5.4866711578       -2.0804412121       -2.6049837019
 Ar         5.7896469877       -0.4191442241        0.6567703767
 Ar         2.5854399881        4.8407855822       -1.9010012892
 Ar         1.5700465569        2.7623306534       -4.9654207866
 Ar         0.0189728264        5.8196632809        0.7116860317
 Ar        -1.0520707537        3.8489090198       -2.2362867641
 Ar         3.8224976231        1.3321436162       -2.2543188439
 Ar        -3.0476259450        0.7025085447        5.1799306777
 Ar        -1.1324276840       -3.7371960730       -3.5513947772
 Ar        -5.9805740040       -0.0498803641       -0.5430594542
 Ar         1.8048369235       -1.7644701251        5.6608208830
 Ar         4.1736905900       -4.5396478233        0.1622441016
 Ar        -3.9094734214       -1.4651247784        2.2181103217
 Ar        -4.5290633814       -3.5770550903       -0.9475891563
 Ar         0.4321696712       -5.5838074493       -0.5459486172
 Ar         1.1698277055       -3.5821991827        2.4670792080
 Ar        -1.7119652405       -2.8703247187        4.9842290942
 Ar         1.1348914735        2.1578609141        0.3120237196
 Ar         3.1348609820        0.5832206393        3.0307169945
 Ar         0.0784153078        0.2542500733       -2.7206633802
 Ar         2.3414468947       -1.4065754193       -0.3153802502
 Ar        -2.4580363304        1.1713074290       -0.0592752699
 Ar        -0.3737547657       -0.2671798257        2.7054902161
 Ar        -1.1880308900       -2.2300834530       -0.2554670128
      38
 i =      10, E =       -0.0604720035
 Ar         4.6007089217       -2.7092075239        3.1863802864
 Ar        -3.6717879021        4.6976300610        0.2929675731
 Ar        -3.3130699438       -0.8036935413       -3.1941301895
 Ar         2.0342238536       -3.6544644094       -3.0613444978
 Ar         0.5620079364        1.7536579816        5.7048874661
 Ar        -2.4729777343       -4.9827859222        1.8875348802
 Ar        -4.6200771837        2.7237477039       -2.7497927231
 Ar         2.9135626950       -0.7184738127       -5.1005157517
 Ar        -1.5079495173        3.2277725478        2.9242417964
 Ar         4.7049237371        3.3783170606        0.8715387464
 Ar        -0.6576813045       -1.4183229423       -5.9340863883
 Ar        -2.0086112422        2.0065997766       -5.3685123108
 Ar        -6.0781087270        2.4424962396        2.0338655191
 Ar         2.0860255333        4.3130455788        3.3859439639
 Ar         5.3315023665       -2.0723326293       -2.4890550835
 Ar         5.8674185670       -0.2128020676        0.6688196070
 Ar         2.5820153428        4.9287509782       -1.8641934138
 Ar         1.6374399028        2.8524131654       -4.9110032977
 Ar        -0.0396130661        5.8576774239        0.6929413719
 Ar        -1.0052541248        3.8258372012       -2.2944414363
 Ar         3.8157470430        1.3941624166       -2.1703589202
 Ar        -3.0524575096        0.6572375899        5.1305914172
 Ar        -1.5939055883       -4.1065175776       -3.4943759148
 Ar        -5.9728007736       -0.0993718707       -0.6588999367
 Ar         1.7910571088       -1.7658992816        5.5530534999
 Ar         3.9520299517       -4.6324705839        0.0437544713
 Ar        -3.8892252852       -1.4496031882        2.1492609788
 Ar        -4.5502597493       -3.5965612626       -0.9675758095
 Ar         0.2858753663       -5.7530587670       -0.5784176436
 Ar         1.0635432826       -3.7127932257        2.4323823675
 Ar        -1.7309223808       -2.9036219651        4.9305871774
 Ar         1.1201260655        2.2434409960        0.3481674747
 Ar         3.1703252027        0.7290699466        3.0865044698
 Ar         0.1975799015        0.2412189798       -2.6737999607
 Ar         2.3740954382       -1.2832306298       -0.0554368381
 Ar        -2.4564809490        1.1758786349       -0.0774324160
 Ar        -0.3286575469       -0.2919432318        2.6545067998
 Ar        -1.1403462881       -2.2818048495       -0.3345619349
      38
 i =      10, E =       -0.0621020546
 Ar         4.4798481073       -2.6413571028        2.9054530237
 Ar        -3.6442984578        4.7108274567        0.1209251499
 Ar        -3.2124768086       -0.8996518874       -3.1587736203
 Ar         1.5454424242       -3.2292694833       -2.8793494286
 Ar         0.5328459673        1.7675927628        5.6638460447
 Ar        -2.5803059531       -5.0516935685        1.8193014521
 Ar        -4.4798469809        2.6413568396       -2.9054532658
 Ar         2.9886468317       -0.5653608122       -5.1220913727
 Ar        -1.5454412979        3.2292692202        2.8793491865
 Ar         4.6638047592        3.5836550817        0.9454176980
 Ar        -0.5328448410       -1.7675930259       -5.6638462868
 Ar        -1.7808032580        1.7699060015       -5.4021844459
 Ar        -5.0823016003        2.0405551888        2.3438964789
 Ar         1.9778522432        4.4508816568        3.4300480085
 Ar         5.0823027266       -2.0405554520       -2.3438967210
 Ar         5.9178411536        0.0289143636        0.6824865342
 Ar         2.5803070794        5.0516933053       -1.8193016942
 Ar         1.7406974546        2.9721400189       -4.8604293833
 Ar        -0.1056482946        5.9189199803        0.6653195707
 Ar        -0.9444361721        3.8286288275       -2.3573071472
 Ar         3.8134829957        1.4990082324       -2.0778829680
 Ar        -2.9886457054        0.5653605490        5.1220911306
 Ar        -1.9778511168       -4.4508819201       -3.4300482506
 Ar        -5.9178400273       -0.0289146268       -0.6824867763
 Ar         1.7808043843       -1.7699062646        5.4021842038
 Ar         3.6442995841       -4.7108277199       -0.1209253920
 Ar        -3.8134818694       -1.4990084956        2.0778827259
 Ar        -4.6638036328       -3.5836553449       -0.9454179401
 Ar         0.1056494209       -5.9189202435       -0.6653198128
 Ar         0.9444372983       -3.8286290907        2.3573069051
 Ar        -1.7406963282       -2.9721402822        4.8604291412
 Ar         1.1295511606        2.3548199805        0.3991550889
 Ar         3.2124779349        0.8996516244        3.1587733782
 Ar         0.2993152655        0.2984969383       -2.6080050918
 Ar         2.3695802487       -1.1602185999        0.1391597100
 Ar        -2.3695791224        1.1602183367       -0.1391599521
 Ar        -0.2993141392       -0.2984972013        2.6080048497
 Ar        -1.1295500343       -2.3548202436       -0.3991553311
